{
  "DomesticValue":"RandValue",
  "ForeignCardHoldersCashWithdrawalsDomesticValue":"ForeignCardHoldersCashWithdrawalsRandValue",
  "ForeignCardHoldersPurchasesDomesticValue":"ForeignCardHoldersPurchasesRandValue",
  "RegulatorAuth":"SARBAuth",
  "CBAuthAppNumber":"SARBAuthAppNumber",
  "CBAuthRefNumber":"SARBAuthRefNumber",
  "REInternalAuthNumber":"ADInternalAuthNumber",
  "REInternalAuthNumberDate":"ADInternalAuthNumberDate"
}