 {
  "packages": {
    "coreSARB": {
      "calls": "tXstreamDBCallsAtSyn",
      "reportspace": "SARB",
      "defaultSchema": "genv3"
    },
    "coreSADC": {
      "calls": "tXstreamDBCallsAtSyn",
      "reportspace": "SADC",
      "defaultSchema": "genv3"
    },
    "coreBON": {
      "calls": "tXstreamDBCallsAtSyn",
      "reportspace": "BON",
      "defaultSchema": "genv3"
    },
    "coreSARBExternal": {
      "calls": "tXstreamDBCallsAtSyn",
      "reportspace": "SARB",
      "defaultSchema": "genv3"
    },
    "coreBONExternal": {
      "calls": "tXstreamDBCallsAtSyn",
      "reportspace": "BON",
      "defaultSchema": "genv3"
    },
    "coreRBMExternal": {
      "calls": "tXstreamDBCallsAtSyn",
      "reportspace": "BON",
      "defaultSchema": "genv3"
    },
    "sasfin": {
      "calls": "tXstreamDBCalls.sasfinAtSyn",
      "reportspace": "SARB",
      "defaultSchema": "sarb"
    },
    "albaraka": {
      "calls": "tXstreamDBCalls.ZA.albarakaAtSyn",
      "reportspace": "SARB",
      "defaultSchema": "genv3"
    },
    "stdSARB": {
      "calls": "tXstreamDBCalls.ZA.stdbankAtSyn",
      "reportspace": "SARB",
      "defaultSchema": "genv3"
    },
    "stdBankLibra": {
      "calls": "tXstreamDBCalls.ZA.stdbankAtSyn",
      "reportspace": "SARB",
      "defaultSchema": "genv3"
    },
    "stdBankCommon": {
      "calls": "tXstreamDBCalls.ZA.stdbankAtSyn",
      "reportspace": "SARB",
      "defaultSchema": "genv3"
    },
    "sbZA": {
      "calls": "tXstreamDBCalls.ZA.stdbankAtSyn",
      "reportspace": "SARB",
      "defaultSchema": "genv3"
    },
    "sbZAQPay": {
      "calls": "tXstreamDBCalls.ZA.stdbankAtSyn",
      "reportspace": "SARB",
      "defaultSchema": "genv3"
    },
    "sbZAMurexCore": {
      "calls": "tXstreamDBCalls.ZA.stdbankAtSyn",
      "reportspace": "SARB",
      "defaultSchema": "genv3"
    },
    "sbIBR1": {
      "calls": "tXstreamDBCalls.ZA.stdbankAtSyn",
      "reportspace": "SARB",
      "defaultSchema": "genv3"
    },
    "sbTradeSuite": {
      "calls": "tXstreamDBCalls.ZA.stdbankAtSyn",
      "reportspace": "SARB",
      "defaultSchema": "genv3"
    },
    "sbRAVN": {
      "calls": "tXstreamDBCalls.ZA.stdbankAtSyn",
      "reportspace": "SARB",
      "defaultSchema": "genv3"
    },
    "sbNA": {
      "calls": "tXstreamDBCalls.NA.stdbankAtSyn",
      "reportspace": "BON",
      "defaultSchema": "genv3"
    },
    "sbNAMoby": {
      "calls": "tXstreamDBCalls.NA.stdbankAtSyn",
      "reportspace": "BON",
      "defaultSchema": "genv3"
    },
    "sbMW": {
      "calls": "tXstreamDBCalls.MW.stdbankAtSyn",
      "reportspace": "RBM",
      "defaultSchema": "genv3"
    },
    "coreRBM": {
      "calls": "tXstreamDBCalls.MW.stdbankAtSyn",
      "reportspace": "RBM",
      "defaultSchema": "genv3"
    },
    "coreCBL": {
      "calls": "tXstreamDBCalls.LS.stdbankAtSyn",
      "reportspace": "CBL",
      "defaultSchema": "genv3"
    },
    "sbLSEBank": {
      "calls": "tXstreamDBCalls.LS.stdbankAtSyn",
      "reportspace": "CBL",
      "defaultSchema": "genv3"
    },
    "sbLSFin": {
      "calls": "tXstreamDBCalls.LS.stdbankAtSyn",
      "reportspace": "CBL",
      "defaultSchema": "genv3"
    },
    "sbLS": {
      "calls": "tXstreamDBCalls.LS.stdbankAtSyn",
      "reportspace": "CBL",
      "defaultSchema": "genv3"
    }
  }
}