{
  "accountholder_list": {
    "parameters": [
      { "name": "filter1", "path": "filter1" },
      { "name": "filter2", "path": "filter2" }
    ],
    "rest": {
      "verb": "POST",
      "url": "http://saleslogix.investec.co.za:10080/clients/outsourcer",
      "body": [
        "<?xml version=\"1.0\" encoding=\"UTF-8\" standalone=\"yes\"?>",
        "<OutsourcerClientList>",
        " <Outsourcer>${filter1}</Outsourcer>",
        " <Filter>${filter2}</Filter>",
        "</OutsourcerClientList>"
      ]
    },
    "compose": [
      "<#assign doc = util.xmlDeserialize(response) >",
      "[",
      "<#if doc.Datalist??>",
      "<#list doc.Datalist as data>",
      "  {Reference: '${util.escapeJavaScript(data.Ref)}', Description: '${util.escapeJavaScript(data.Description)}'}<#if data_has_next>,</#if>",
      "</#list>",
      "</#if>",
      "]"
    ]
  },
  "accountholder_detail": {
    "parameters": [
      { "name": "reference", "path": "reference" }
    ],
    "rest": {
      "verb": "GET",
      "url": "http://saleslogix.investec.co.za:10080/clients/byref?reference=${reference}"
    },
    "compose": [
      "<#assign doc = util.xmlDeserialize(response) >",
      "<#if doc.indv??>",
      "{Individual: {Surname: '${util.escapeJavaScript(doc.indv.surname)}'}}",
      "</#if>"
    ]
  }
}
