{
  "#_COMMENT_00": "*************************************************************************",
  "#_COMMENT_01": "**These rights defined below should encompass ALL rights for the system**",
  "#_COMMENT_02": "**                                                                     **",
  "#_COMMENT_03": "**This includes the rights configured in the Spring Security XML Config**",
  "#_COMMENT_04": "**AND the hard-coded rights for the management end-points in:          **",
  "#_COMMENT_05": "**'za.co.synthesis.regulatory.report.rest'                             **",
  "#_COMMENT_06": "*************************************************************************",

  "rights": [
    "USER",
    "PRODUCER_API",
    "CONSUMER_API",
    "INTERNAL_API",
    "VIEW_USER_DETAILS",
    "SET_USER_DETAILS",
    "SET_ACCESS_SETS",
    "VIEW_ACCESS_SETS",
    "VIEW_USER_DETAILS",
    "SET_USER_DETAILS",
    "SET_SYSTEM_CONFIG"
    ]
}
