{
  "access_sets": [
    {
      "name":"all",
      "reportingSpace": "SARB",
      "read": [
      ],
      "write": [
      ]
    },
    {
      "name":"unrestricted",
      "reportingSpace": "SARB",
      "read": [
      ],
      "write": [
      ]
    },
    {
      "name":"OVID",
      "reportingSpace": "SARB",
      "read": [
        {"meta": "OVID", "values": "${REQUEST:OVID}"}
      ]
    },
    {
      "name":"view acme",
      "reportingSpace": "SARB",
      "read": [
        {"meta": "Corporate", "value": "Acme Ltd"},
        {"meta": "Corporate", "value": "Acme Pty"}
      ]
    },
    {
      "name":"acme central",
      "reportingSpace": "SARB",
      "write": [
        {"meta": "Corporate", "value": "Acme Ltd"},
        {"meta": "Division", "value": "Central"}
      ]
    },
    {
      "name":"acme west",
      "reportingSpace": "SARB",
      "write": [
        {"meta": "Corporate", "value": "Acme Ltd"},
        {"meta": "Division", "value": "West"}
      ]
    },
    {
      "name": "jaco stuff",
      "reportingSpace": "SARB",
      "write": [
        {"meta": "User", "value": "jaco"}
      ]
    },
    {
      "name": "TreasuryOne-Jhb",
      "reportingSpace": "SARB",
      "write": [
        {"meta": "OVID", "value": "12345654"},
        {"meta": "Branch", "value": "JHB"}
      ]
    },
    {
      "name": "TreasuryOne-Jhb",
      "reportingSpace": "SARB",
      "write": [
        {"meta": "OVID", "value": "12345654"},
        {"meta": "Branch", "value": "JHB"}
      ]
    }

  ],
  "users": [
    {
      "username":"tester",
      "password":"test",
      "rights":"USER, PRODUCER_API, CONSUMER_API, INTERNAL_API, VIEW_USER_DETAILS, SET_USER_DETAILS, SET_ACCESS_SETS, VIEW_ACCESS_SETS, VIEW_ACCOUNTHOLDERS",
      "access": ["acme central", "acme west", "jaco stuff"],
      "channels": ["testSARB", "testBON"]
    },
    {
      "username":"forbiddenTester",
      "password":"test",
      "rights":"",
      "access": ["acme central", "acme west", "jaco stuff"],
      "channels": ["testSARB", "testBON"]
    },
    {
      "username":"unauthorisedTester",
      "password":"test",
      "rights":"INTERNAL_API",
      "access": ["acme central", "acme west", "jaco stuff"],
      "channels": ["testSARB", "testBON"]
    },
    {
      "username":"internalProducerTester",
      "password":"test",
      "rights":"INTERNAL_API",
      "access": ["acme central", "acme west", "jaco stuff"],
      "channels": ["testSARB", "testBON"]
    },
    {
      "username":"jaco",
      "password":"abc",
      "rights":"USER, PRODUCER_API, CONSUMER_API, INTERNAL_API",
      "access": ["acme central", "acme west", "jaco stuff"],
      "channels": ["testSARB", "testBON"]
    },
    {
      "username":"jake",
      "password":"abc",
      "rights":"USER, PRODUCER_API, CONSUMER_API, INTERNAL_API",
      "access": ["acme central"]
    },
    {
      "username":"james",
      "password":"$2a$15$HxessqLSiOCLqFuGhKGVeeWrHzL/b1vtJyoxs.rqsYyOXjbGMaKf.",
      "rights":"USER, PRODUCER_API, CONSUMER_API, INTERNAL_API",
      "access": ["OVID"],
      "channels":["flow", "coreSARB" , "stdBankCommon", "testSARB", "testBON"]
    },
    {
      "username":"investecSSO",
      "password":"abc",
      "rights":"USER, PRODUCER_API, CONSUMER_API, INTERNAL_API",
      "access": ["OVID"],
      "channels":["flow", "coreSARB" , "testSARB", "testBON"]
    },
    {
      "username":"investecCCM",
      "password":"abc",
      "rights":"USER, PRODUCER_API, CONSUMER_API, INTERNAL_API",
      "access": ["all"],
      "channels":["flow", "coreSARB" , "testSARB", "testBON"]
    },
    {
      "username":"investecESB",
      "password":"abc",
      "rights":"USER, PRODUCER_API, CONSUMER_API, INTERNAL_API",
      "access": ["all"],
      "channels":["flow", "coreSARB" , "testSARB", "testBON"]
    },
    {
      "username":"superuser",
      "password":"$2a$15$HxessqLSiOCLqFuGhKGVeeWrHzL/b1vtJyoxs.rqsYyOXjbGMaKf.",
      "rights":"USER, PRODUCER_API, CONSUMER_API, INTERNAL_API, VIEW_USER_DETAILS, SET_USER_DETAILS, SET_ACCESS_SETS, VIEW_ACCESS_SETS, VIEW_ACCOUNTHOLDERS",
      "access": ["acme central", "acme west", "unrestricted"],
      "channels":["flow", "coreSARB" , "stdBankCommon", "testSARB", "testBON", "invCCM", "invFXM"]
    },
    {
      "username":"kudz",
      "password":"abc",
      "rights":"USER, PRODUCER_API, CONSUMER_API, INTERNAL_API",
      "access": ["acme west"],
      "channels":["stdBankCommon", "testSARB", "testBON", "coreSARB"]
    },
    {
      "username":"marais",
      "password":"abc",
      "rights":"USER, PRODUCER_API, CONSUMER_API, INTERNAL_API",
      "access": ["acme west"],
      "channels":["stdBankCommon", "testSARB", "testBON", "coreSARB"]
    },
    {
      "username":"nathan",
      "password":"abc",
      "rights":"USER, PRODUCER_API, CONSUMER_API, INTERNAL_API",
      "access": ["acme west"],
      "channels":["stdBankCommon", "testSARB", "testBON", "coreSARB"]
    },
    {
      "username":"nishaal",
      "password":"abc",
      "rights":"USER, PRODUCER_API, CONSUMER_API, INTERNAL_API, VIEW_USER_DETAILS, SET_USER_DETAILS",
      "access": ["acme west"],
      "channels":["stdBankCommon", "testSARB", "testBON", "coreSARB"]
    },
    {
      "username":"naseem",
      "password":"abc",
      "rights":"USER, PRODUCER_API, CONSUMER_API, INTERNAL_API, VIEW_USER_DETAILS, SET_USER_DETAILS",
      "access": ["acme west"],
      "channels":["stdBankCommon", "testSARB", "testBON", "coreSARB"]
    },
    {
      "username":"user",
      "password":"abc",
      "rights":"USER"
    },
    {
      "username":"form",
      "password":"abc",
      "rights":"FORM"
    },
    {
      "username":"system",
      "password":"abc",
      "rights":"SYSTEM"
    },
    {
      "username":"lookup",
      "password":"abc",
      "rights":"LOOKUP"
    },
    {
      "username":"admin",
      "password":"abc",
      "rights":"ADMIN, USER, INTERNAL_API, VIEW_USER_DETAILS, SET_USER_DETAILS"
    },
    {
      "username":"test",
      "password":"abc",
      "rights":"ADMIN, USER, FORM, SYSTEM, LOOKUP"
    },
    {
      "username":"producer",
      "password":"password",
      "rights":"PRODUCER_API"
    },
    {
      "username":"consumer",
      "password":"password",
      "rights":"CONSUMER_API"
    },
    {
      "username":"internal",
      "password":"password",
      "rights":"INTERNAL_API"
    },
    {
      "username":"TreasuryOneUser",
      "password":"password",
      "access": ["TreasuryOne-Jhb"]
    },
    {
      "username":"Warren",
      "password":"password",
      "access": ["TreasuryOne-Jhb"]
    },
    {
      "username":"Fry",
      "password":"password",
      "access": ["TreasuryOne-Jhb"]
    },
    {
      "username":"IIS",
      "password":"password",
      "access": ["TreasuryOne-Jhb"]
    },
    {
      "username":"Tone",
      "password":"password",
      "access": ["TreasuryOne-Jhb"]
    },
    {
      "username":"CURPAR",
      "password":"password",
      "access": ["TreasuryOne-Jhb"]
    }
  ]
}
