{
  "title": "ReportData",
  "$ref": "#/definitions/ReportData",
  "definitions": {
    "ReportDataWithState": {
      "type": "object",
      "properties": {
        "State": {
          "type": "string"
        },
        "Meta": {
          "$ref": "#/definitions/Meta"
        },
        "Report": {
          "$ref": "#/definitions/Report"
        }
      }
    },
    "ReportData": {
      "type": "object",
      "properties": {
        "Meta": {
          "$ref": "#/definitions/Meta"
        },
        "Report": {
          "$ref": "#/definitions/Report"
        }
      }
    },
    "DownloadReports": {
      "type": "object",
      "properties": {
        "SyncPoint": {
          "type": "string"
        },
        "Reports": {
          "type": "array",
          "items": {
            "$ref": "#/definitions/ReportData"
          }
        }
      }
    }
  }
}