{
  "title": "Report",
  "$ref": "#/definitions/Report",
  "definitions": {
    "Report": {
      "type": "object",
      "properties": {
        "LocationCountry": {
          "type": "string"
        },
        "AccountHolderStatus": {
          "type": "string"
        },
        "PaymentDetail": {
          "$ref": "#/definitions/PaymentDetail"
        }
      }
    },
    "PaymentDetail": {
      "type": "object",
      "properties": {
        "Charges": {
          "type": "string"
        },
        "SWIFTDetails": {
          "type": "string"
        },
        "BeneficiaryBank": {
          "$ref": "#/definitions/PaymentBank"
        },
        "IsCorrespondentBank": {
          "type": "string"
        },
        "CorrespondentBank": {
          "$ref": "#/definitions/PaymentBank"
        }
      }
    },
    "PaymentBank": {
      "type": "object",
      "properties": {
        "SWIFTBIC": {
          "type": "string"
        },
        "BankName": {
          "type": "string"
        },
        "BranchCode": {
          "type": "string"
        },
        "Address": {
          "type": "string"
        },
        "City": {
          "type": "string"
        }
      }
    },
    "Individual": {
      "type": "object",
      "properties": {
        "TempResExpiryDate": {
          "type": "string"
        },
        "PassportExpiryDate": {
          "type": "string"
        }
      }
    },
    "MonetaryAmount": {
      "type": "object",
      "properties": {
        "TaxClearanceCertificateIndicator": {
          "type": "string"
        },
        "LoanTenorMaturityDate": {
          "type": "string"
        },
        "LoanTenorType": {
          "type": "string"
        },
        "LoanInterest": {
          "$ref": "#/definitions/LoanInterest"
        },
        "TravelMode": {
          "$ref": "#/definitions/TravelMode"
        }
      }
    },
    "LoanInterest": {
      "type": "object",
      "properties": {
        "InterestType": {
          "type": "string"
        },
        "BaseRate": {
          "type": "string"
        },
        "Term": {
          "type": "string"
        },
        "PlusMinus": {
          "type": "string"
        },
        "Rate": {
          "type": "string"
        }
      }
    },
    "TPIndividual": {
      "type": "object",
      "properties": {
        "TempResExpiryDate": {
          "type": "string"
        },
        "PassportExpiryDate": {
          "type": "string"
        },
        "TravellerStatus": {
          "type": "string"
        }
      }
    },
    "TravelMode": {
      "type": "object",
      "properties": {
        "Mode": {
          "type": "string"
        },
        "BorderPost": {
          "type": "string"
        },
        "TicketNumber": {
          "type": "string"
        },
        "DepartureDate": {
          "type": "string"
        },
        "DestinationCountry": {
          "type": "string"
        }
      }
    }
  }
}
