{
  "packages": {
    "stdBankLibra": {
      "calls": "tXstreamDBCalls.ZAPROD",
      "reportspace": "SARB",
      "defaultSchema": "genv3"
    },
    "sbZA": {
      "calls": "tXstreamDBCalls.ZAPROD",
      "reportspace": "SARB",
      "defaultSchema": "genv3"
    },
    "sbZAQPay": {
      "calls": "tXstreamDBCalls.ZAPROD",
      "reportspace": "SARB",
      "defaultSchema": "genv3"
    },
    "sbZAMurexCore": {
      "calls": "tXstreamDBCalls.ZAPROD",
      "reportspace": "SARB",
      "defaultSchema": "genv3"
    },
    "sbIBR1": {
      "calls": "tXstreamDBCalls.ZAPROD",
      "reportspace": "SARB",
      "defaultSchema": "genv3"
    },
    "sbIBR2": {
      "calls": "tXstreamDBCalls.ZAPROD",
      "reportspace": "SARB",
      "defaultSchema": "genv3"
    },
    "sbTradeSuite": {
      "calls": "tXstreamDBCalls.ZAPROD",
      "reportspace": "SARB",
      "defaultSchema": "genv3"
    },
    "sbRAVN": {
      "calls": "tXstreamDBCalls.ZAPROD",
      "reportspace": "SARB",
      "defaultSchema": "genv3"
    },
    "stdBankCommon": {
      "calls": "tXstreamDBCalls.ZAPROD",
      "reportspace": "SARB",
      "defaultSchema": "genv3"
    },



    "coreSADC": {
      "calls": "tXstreamDBCalls.ZAPROD",
      "reportspace": "SADC",
      "defaultSchema": "genv3"
    },



    "sbNA": {
      "calls": "tXstreamDBCalls.NA",
      "reportspace": "BON",
      "defaultSchema": "genv3"
    },
    "sbNAFin": {
      "calls": "tXstreamDBCalls.NA",
      "reportspace": "BON",
      "defaultSchema": "genv3"
    },
    "sbNAMoby": {
      "calls": "tXstreamDBCalls.NA",
      "reportspace": "BON",
      "defaultSchema": "genv3"
    },


    "sbMW": {
      "calls": "tXstreamDBCalls.MW",
      "reportspace": "RBM",
      "defaultSchema": "genv3"
    },
    "sbMWFin": {
      "calls": "tXstreamDBCalls.MW",
      "reportspace": "RBM",
      "defaultSchema": "genv3"
    },

    "coreCBL": {
      "calls": "tXstreamDBCalls.LS",
      "reportspace": "CBL",
      "defaultSchema": "genv3"
    },

    "sbLSEBank": {
      "calls": "tXstreamDBCalls.LS",
      "reportspace": "CBL",
      "defaultSchema": "genv3"
    },

    "sbLSFin": {
      "calls": "tXstreamDBCalls.LS",
      "reportspace": "CBL",
      "defaultSchema": "genv3"
    },

    "sbLS": {
      "calls": "tXstreamDBCalls.LS",
      "reportspace": "CBL",
      "defaultSchema": "genv3"
    }
  }
}