{
  "datasource": {
    "jdbc.driverClassName" : "com.microsoft.sqlserver.jdbc.SQLServerDriver",
    "jdbc.url" : "jdbc:sqlserver://${txstreamZA.host};databaseName=${txstreamZA.database};sendStringParametersAsUnicode=false",
    "jdbc.username": "${txstreamZA.username}",
    "jdbc.password" : "${txstreamZA.password}"
  },
  "validations": {
    "Validate_GetThirdPartyFromCIF": {
      "endpoint": "getThirdPartyFromCIF",
      "parameters": [
        { "name": "FieldValue", "path": "value" },
        { "name": "TrnRef", "path": "transaction::TrnReference" },
        { "name": "Module", "path": "customData::module" },
        { "name": "Seq", "path": "money::SequenceNumber" },
        { "name": "Cif", "path": "money::ThirdParty." }
      ],
      "rest": {
        "verb": "GET",
        "url": "http://localhost:${test_port}/report-data-store/test/albaraka/cif?al_third_party_CIF=${Cif}&TrnReference=${TrnRef}&Module=${Module}"
      },
      "compose": [
        "<#if response?? && response?size gt 0 && response[0]?? && util.sqlFirstRowDeserialize(response)??>",
        "{ \"params\":",
        "  {",
        "    \"TrnReference\":\"${TrnRef}\",",
        "    \"SequenceNumber\":\"${Seq}\",",
        "    \"Module\":\"${Module}\",",
        "    \"Cif\":\"${Cif}\"",
        "  },",
        "  \"response\": ${response}",
        "}",
        "<#else>",
        "{status: 'fail', code: 'NOF', message: 'CIF Call for third party data failed (Trn:${TrnRef}, Seq:${Seq}, Module:${Module}, Cif:${Cif}).'}",
        "</#if>"
      ]
    },
    "Validate_IVS": {
      "endpoint": "validateIVS",
      "parameters": [
        { "name": "FieldValue", "path": "value" },
        { "name": "TrnRef", "path": "transaction::TrnReference" },
        { "name": "Seq", "path": "money::SequenceNumber" },
        { "name": "ThirdPartyCCN", "path": "money::ThirdParty.CustomsClientNumber" },
        { "name": "ResidentInvCCN", "path": "transaction::Resident.Individual.CustomsClientNumber" },
        { "name": "ResidentEntityCCN", "path": "transaction::Resident.Entity.CustomsClientNumber" },
        { "name": "TDN", "path": "TransportDocumentNumber" },
        { "name": "MRN", "path": "ImportControlNumber" }
      ],
      "rest": {
        "verb": "POST",
        "headers": [
          {
            "name": "Content-Type",
            "value": "application/xml"
          }
        ],
        "url": "http://localhost:${test_port}/report-data-store/test/standardbank/ivs/${MRN}",
        "body": ["<#assign nowTime = .now>",
          "<?xml version=\"1.0\" encoding=\"UTF-8\" standalone=\"yes\"?>",
          "<IVS>",
          " <Version>1</Version>",
          " <Test>1</Test>",
          " <Import>",
          "  <ImportVerification>",
          "   <TransportDocumentNumber>${TDN}</TransportDocumentNumber>",
          "   <CustomsClientNumber><#if ThirdPartyCCN??>${ThirdPartyCCN}<#elseif ResidentInvCCN??>${ResidentInvCCN}<#else>${ResidentEntityCCN}</#if></CustomsClientNumber>",
          "   <MRN>${MRN}</MRN>",
          "   <BOPTrnReference>${TrnRef}</BOPTrnReference>",
          "   <BOPSequenceNumber>${Seq}</BOPSequenceNumber>",
          "   <Description></Description>",
          "   <DateTime>${nowTime?iso_local_m_nz}</DateTime>",
          "  </ImportVerification>",
          " </Import>",
          "</IVS>"
        ]
      },
      "compose": [
        "<#assign softError=['203', '204', '210', '400', '401', '408'] >",
        "<#if response?? && util.xmlDeserialize(response)??>",
        "  <#assign doc = util.xmlDeserialize(response) >",
        "  <#if doc.IVS??>",
        "    <#if doc.IVS.Import?? && doc.IVS.Import.VerificationResponse??>",
        "      <#if !(doc.IVS.Import.VerificationResponse.@ErrorCode[0]??)>",
        "{status: 'pass'}",
        "      <#else>",
        "{",
        "  status: '${softError?seq_contains(doc.IVS.Import.VerificationResponse.@ErrorCode)?string('error', 'fail')}',",
        "  code: '${doc.IVS.Import.VerificationResponse.@ErrorCode}',",
        "  message: '${util.escapeJavaScript(doc.IVS.Import.VerificationResponse.@ErrorMessage)}'",
        "}",
        "      </#if>",
        "    <#else>",
        "      <#list doc.reason as data>",
        "{status: 'fail', code: '${util.escapeJavaScript(data.number)}', message: '${util.escapeJavaScript(data.description)}'}",
        "      </#list>",
        "    </#if>",
        "  <#else>",
        "{status: 'fail', code: 412, message: 'The call to ARM within SBSA returned an unknown or unexpected response.'}",
        "  </#if>",
        "<#else>",
        "{status: 'fail', code: 'NOF', message: 'External IVS service response is empty'}",
        "</#if>"
      ]
    },
    "Verify_ARM": {
      "endpoint": "verifyARM",
      "failOnBusy": "true",
      "failOnError": "true",
      "parameters": [
        { "name": "FieldValue", "path": "value" },
        { "name": "TrnRef", "path": "transaction::TrnReference" },
        { "name": "Seq", "path": "money::SequenceNumber" },
        { "name": "Flow", "path": "transaction::Flow" },
        { "name": "ValueDate", "path": "transaction::ValueDate" },
        { "name": "FlowCurrency", "path": "transaction::FlowCurrency" },
        { "name": "TotalFlowAmount", "path": "transaction::TotalForeignValue" },
        { "name": "FlowAmount", "path": "money::ForeignValue" },
        { "name": "RegulatorAuth", "path": "money::RegulatorAuth.CBAuthAppNumber" },
        { "name": "RegulatorAuthDate", "path": "money::RegulatorAuth.CBAuthDate" },
        { "name": "InternalAuth", "path": "money::RegulatorAuth.REInternalAuthNumber" },
        { "name": "InternalAuthDate", "path": "money::RegulatorAuth.REInternalAuthNumberDate" }
      ],
      "rest": {
        "verb": "GET",
        "allowedHttpCodes": [200, 422],
        "headers": [
          {
            "name": "Content-Type",
            "value": "application/xml"
          }
        ],
        "url": "http://localhost:${test_port}/report-data-store/test/standardbank/arm/016<#if RegulatorAuth??>${RegulatorAuth!''}<#else>${InternalAuth!''}</#if><#if RegulatorAuthDate??>${RegulatorAuthDate!''}<#else>${InternalAuthDate!''}</#if>",
        "body": ["<#assign nowTime = .now>",
          "<?xml version=\"1.0\" encoding=\"UTF-8\" ?>",
          "<verifyExcon>",
          " <applicationNumber>016<#if RegulatorAuth??>${RegulatorAuth!''}<#else>${InternalAuth!''}</#if></applicationNumber>",
          "  <flow><#if Flow??><#if Flow=='OUT'>Sell<#else><#if Flow=='IN'>Buy<#else>${Flow}</#if></#if></#if></flow>",
          "  <transaction>",
          "    <currency>${FlowCurrency}</currency>",
          "    <amount>${FlowAmount}</amount>",
          "  </transaction>",
          "</verifyExcon>"
        ]
      },
      "compose": [
        "<#ftl output_format=\"HTML\" auto_esc=true>",
        "<#if response?? && response?length gt 0 && util.xmlDeserialize(response)??>",
        "  <#assign doc = util.xmlDeserialize(response) >",
        "  <#if doc?? && doc?has_content && doc.verifyExconResponse?? && doc.verifyExconResponse?has_content>",
        "    <#assign successState = doc.verifyExconResponse.verificationSuccessful >",
        "    <#if successState?? && successState?has_content && successState?length gt 0>",
        "        <#if successState?lower_case?matches('yes')>",
        "          <#assign details = doc.verifyExconResponse.details >",
        "          <#if details?? && details?has_content >",
        "            <#assign appDate = details.APP_DATE!'' >",
        "            <#assign endDate = details.END_DATE!'' >",
        "            <#if (RegulatorAuthDate?? || InternalAuthDate??)>",
        "              <#if ((RegulatorAuth?? && RegulatorAuthDate?? && RegulatorAuthDate?matches('\\\\d{4}(-\\\\d{2}){2}')) || (InternalAuth?? && InternalAuthDate?? && InternalAuthDate?matches('\\\\d{4}(-\\\\d{2}){2}')))>",
        "                <#if appDate?? && (RegulatorAuth?? && (appDate?matches(RegulatorAuthDate!'') || !(RegulatorAuthDate??))) || (InternalAuth?? && appDate?matches(InternalAuthDate!''))>",
        "                  <#if ValueDate?? && ValueDate?matches('\\\\d{4}(-\\\\d{2}){2}')>",
        "                    <#if ValueDate?? && endDate?? && util.strGreaterThanEquals(endDate!'', ValueDate!'') && util.strGreaterThanEquals(ValueDate!'', appDate!'')>",
        "{status: 'pass'}",
        "                    <#else>",
        "{status: 'fail', code: 'VD1', message: 'ValueDate: ${ValueDate!''} does not fall within the APP_DATE (${appDate!''}) and END_DATE (${endDate!''}) values returned from ARM'}",
        "                    </#if>",
        "                  <#else>",
        "{status: 'fail', code: 'VD2', message: 'ValueDate: ${ValueDate!''} does not contain the required format (YYYY-MM-DD) or valid date value'}",
        "                  </#if>",
        "                <#else>",
        "{status: 'fail', code: 'AD1', message: 'Auth Date (${RegulatorAuthDate!''}${InternalAuthDate!''}) provided, does not correspond with the APP_DATE (${appDate!''}) returned from ARM'}",
        "                </#if>",
        "              <#else>",
        "{status: 'fail', code: 'AD2', message: 'Auth Date (${RegulatorAuthDate!''}${InternalAuthDate!''}) provided, does not contain the required format (YYYY-MM-DD) or an accompanying Auth Number'}",
        "              </#if>",
        "            <#else>",
        "{status: 'pass'}",
        "            </#if>",
        "          <#else>",
        "{status: 'pass'}",
        "          </#if>",
        "       <#else>",
        "         <#assign errorCode = doc.verifyExconResponse.reason.number>",
        "         <#assign errorMessage = doc.verifyExconResponse.reason.description>",
        "{status: 'fail', code: '${errorCode}', message: '${errorMessage}'}",
        "      </#if>",
        "    <#else>",
        "{status: 'fail', code: 'W02', message: 'The call to ARM within SBSA returned an unknown or unexpected response (No Success/Fail Indicator).'}",
        "    </#if>",
        "  <#else>",
        "{status: 'fail', code: 'W01', message: 'The call to ARM within SBSA returned an unknown or unexpected response.'}",
        "  </#if>",
        "<#else>",
        "{status: 'fail', code: 'NOF', message: 'External Excon service response is empty'}",
        "</#if>"
      ]
    },
    "Validate_LoanRef": {
      "endpoint": "loanRef",
      "parameters": [
        { "name": "loanReference", "path": "value" },
        { "name": "loanRef", "path": "money::LoanRefNumber" },
        { "name": "valueDate", "path": "transaction::ValueDate" },
        { "name": "REAccountNumber", "path": "transaction::Resident.Entity.AccountNumber" },
        { "name": "REAccountIdentifier", "path": "transaction::Resident.Entity.AccountIdentifier" },
        { "name": "RIAccountNumber", "path": "transaction::Resident.Individual.AccountNumber" },
        { "name": "RIAccountIdentifier", "path": "transaction::Resident.Individual.AccountIdentifier" }
      ],
      "sql": [
        "SELECT [LoanRefNumber],[Status],[CountryCode],[ValidFrom],[ValidTo],[AccountNumber],[ForeignCurrencyIndicator] ",
        "FROM OR_LoanReference WITH (NOLOCK)",
        "WHERE [LoanRefNumber] = '<#if (loanReference??)>${util.escapeSql(loanReference!'LOAN_REFERENCE_NOT_SUPPLIED')}<#else>${util.escapeSql(loanRef!'LOAN_REF_NOT_SUPPLIED')}</#if>'",
        "AND [Status] IN ('C', 'A')"
      ],
      "compose": [
        "<#if response?? && response?size gt 0 && response[0]?? && util.sqlFirstRowDeserialize(response)??>",
        "  <#assign accountNumber = (REAccountNumber??)?then(REAccountNumber!'', RIAccountNumber!'') >",
        "  <#assign accountIdentifier = (REAccountIdentifier??)?then(REAccountIdentifier!'', RIAccountIdentifier!'') >",
        "  <#assign row = util.sqlFirstRowDeserialize(response) >",
        "  <#if !(row?? && row.LoanRefNumber?? && row.LoanRefNumber?has_content)>",
        "{status: 'fail', code: 374, message: 'Invalid loan reference number <#if (loanReference??)>${util.escapeSql(loanReference!'LOAN_REFERENCE_NOT_SUPPLIED')}<#else>${util.escapeSql(loanRef!'LOAN_REF_NOT_SUPPLIED')}</#if>'}",
        "  <#else>",
        "    <#if !(row.ForeignCurrencyIndicator??) && !(row.AccountNumber??)>",
        "{status: 'pass'}",
        "    <#else>",
        "      <#assign loanFC = (row.ForeignCurrencyIndicator??)?then(row.ForeignCurrencyIndicator,'') >",
        "      <#assign loanAcc = (row.AccountNumber??)?then(row.AccountNumber,'') >",
        "      <#if loanAcc?? && loanAcc?length gt 0 && loanAcc != accountNumber>",
        "{status: 'fail', code: 'LRN', message: 'Invalid loan reference and account number combination: <#if (loanReference??)>${util.escapeSql(loanReference!'LOAN_REFERENCE_NOT_SUPPLIED')}<#else>${util.escapeSql(loanRef!'LOAN_REF_NOT_SUPPLIED')}</#if> and ${accountNumber!''}'}",
        "      <#else>",
        "        <#if loanFC?? && loanFC?length gt 0 && loanFC == 'Y' && !('FCA RESIDENT' == accountIdentifier || 'CFC RESIDENT' == accountIdentifier)>",
        "{status: 'fail', code: 'LRN', message: 'Loan Reference is valid with CFC Indicator ${loanFC!''}, Resident Account Identifier is ${accountIdentifier!''}'}",
        "        <#else>",
        "          <#if loanFC?? && loanFC?length gt 0 && loanFC != 'Y' && ('FCA RESIDENT' == accountIdentifier || 'CFC RESIDENT' == accountIdentifier)>",
        "{status: 'fail', code: 'LRN', message: 'Loan Reference is valid, Resident Account Identifier is not CFC RESIDENT or FCA RESIDENT'}",
        "          <#else>",
        "{status: 'pass'}",
        "          </#if>",
        "        </#if>",
        "      </#if>",
        "    </#if>",
        "  </#if>",
        "<#else>",
        "{status: 'fail', code: 374, message: 'Invalid loan reference number <#if (loanReference??)>${util.escapeSql(loanReference!'LOAN_REFERENCE_NOT_SUPPLIED')}<#else>${util.escapeSql(loanRef!'LOAN_REF_NOT_SUPPLIED')}</#if>'}",
        "</#if>"
      ]
    },
    "Validate_ImportUndertakingCCN": {
      "endpoint": "importUndertakingCCN",
      "parameters": [
        { "name": "CCN", "path": "value" },
        { "name": "valueDate", "path": "transaction::ValueDate" }
      ],
      "sql": [
        "SELECT [LetterOfUndertaking] as LU FROM OR_CustomsClientNumber WITH (NOLOCK)",
        "WHERE [CCN] = '${util.escapeSql(CCN)}' <#if valueDate??>",
        "AND ([ValidFrom] IS NULL OR [ValidFrom] <= '${util.escapeSql(valueDate)}')",
        "AND ([ValidTo] IS NULL OR [ValidTo] >= '${util.escapeSql(valueDate)}')</#if>"
      ],
      "compose": [
        "<#if response?? && response?size gt 0 && response[0]?? && util.sqlFirstRowDeserialize(response)??>",
        "  <#assign row = util.sqlFirstRowDeserialize(response) >",
        "  <#if row??>",
        "    <#if row.LU == 'Y'>",
        "{status: 'pass', message: 'The CCN is a registered import undertaking entity'}",
        "    <#else>",
        "{status: 'fail', code: 323, message: 'The CCN is not a registered import undertaking entity'}",
        "    </#if>",
        "  <#else>",
        "{status: 'fail', code: '323', message: 'The CCN is not a valid entry<#if valueDate??> for the date ${valueDate}</#if>'}",
        "  </#if>",
        "<#else>",
        "{status: 'fail', code: 'NOF', message: 'CCN not found or is not valid as per start and end dates'}",
        "</#if>"
      ]
    },
    "Validate_ReplacementTrnReference": {
      "endpoint": "replacementTrnReference",
      "parameters": [
        { "name": "replacementTrnReference", "path": "ReplacementOriginalReference" }
      ],
      "sql": [
        "WITH cteCancelled AS (",
        "SELECT t.TrnReference, CASE WHEN qeD.EntryStateID IN (4 /*Acknowledged*/, 5 /*AssumedAcknowledged*/) THEN 'Acked' ELSE 'Wait' END DeleteState",
        " FROM OR_Transaction t WITH (NOLOCK)",
        " JOIN (OR_QueueEntry qeD WITH (NOLOCK)",
        "  JOIN OR_TransactionSnapshot tsD WITH (NOLOCK) ON tsD.SnapshotID = qeD.SnapshotID",
        " ) ON tsD.TrnReference = t.TrnReference AND qeD.AddDeleteFlag = 'D'",
        " LEFT JOIN (OR_QueueEntry qeA WITH (NOLOCK)",
        "  JOIN OR_TransactionSnapshot tsA WITH (NOLOCK) ON tsA.SnapshotID = qeA.SnapshotID",
        " ) ON tsA.TrnReference = t.TrnReference AND qeA.AddDeleteFlag = 'A' AND qeA.DateAdded >= qeD.DateAdded",
        "WHERE t.TrnReference = '${util.escapeSql(replacementTrnReference)}' AND qeA.QueueEntryID IS NULL",
        "UNION ALL",
        " SELECT t.TrnReference, CASE WHEN qeD.EntryStateID IN (4 /*Acknowledged*/, 5 /*AssumedAcknowledged*/) THEN 'Acked' ELSE 'Wait' END DeleteState",
        " FROM archive.OR_Transaction t WITH (NOLOCK)",
        " JOIN (archive.OR_QueueEntry qeD WITH (NOLOCK) JOIN archive.OR_TransactionSnapshot tsD WITH (NOLOCK) ON tsD.SnapshotID = qeD.SnapshotID ) ON tsD.TrnReference = t.TrnReference AND qeD.AddDeleteFlag = 'D'",
        " LEFT JOIN (archive.OR_QueueEntry qeA WITH (NOLOCK) JOIN archive.OR_TransactionSnapshot tsA WITH (NOLOCK) ON tsA.SnapshotID = qeA.SnapshotID ) ON tsA.TrnReference = t.TrnReference AND qeA.AddDeleteFlag = 'A' AND qeA.DateAdded >= qeD.DateAdded",
        " WHERE t.TrnReference = '${util.escapeSql(replacementTrnReference)}' AND qeA.QueueEntryID IS NULL)",
        "SELECT MAX(CASE WHEN c.TrnReference IS NULL AND tx.StateID = 8 /*NotReportable*/ THEN 'Y' WHEN c.TrnReference IS NOT NULL AND c.DeleteState = 'Acked' THEN 'Y' ELSE 'N' END) as Cancelled",
        " FROM OR_Transaction tx WITH (NOLOCK)",
        " LEFT JOIN cteCancelled c WITH (NOLOCK) ON c.TrnReference = tx.TrnReference",
        "WHERE tx.TrnReference = '${util.escapeSql(replacementTrnReference)}'",
        "GROUP BY tx.TrnReference",
        "UNION ALL",
        " SELECT MAX(CASE WHEN c.TrnReference IS NULL AND tx.StateID = 8 /*NotReportable*/ THEN 'Y' WHEN c.TrnReference IS NOT NULL AND c.DeleteState = 'Acked' THEN 'Y' ELSE 'N' END) as Cancelled",
        " FROM archive.OR_Transaction tx WITH (NOLOCK)",
        " LEFT JOIN cteCancelled c WITH (NOLOCK) ON c.TrnReference = tx.TrnReference WHERE tx.TrnReference = '${util.escapeSql(replacementTrnReference)}'",
        " GROUP BY tx.TrnReference"
      ],
      "compose": [
        "<#if response?? && response?size gt 0 && response[0]?? && util.sqlFirstRowDeserialize(response)??>",
        "  <#assign row = util.sqlFirstRowDeserialize(response) >",
        "  <#if row??>",
        "    <#if row.Cancelled == 'Y'>",
        "{status: 'pass'}",
        "    <#else>",
        "{status: 'fail', code: 212, message: '${util.escapeJavaScript(replacementTrnReference)} has not yet been cancelled (Original transaction must first be cancelled)'}",
        "    </#if>",
        "  <#else>",
        "{status: 'fail', code: '212', message: '${util.escapeJavaScript(replacementTrnReference)} in not an existing transaction'}",
        "  </#if>",
        "<#else>",
        "{status: 'fail', code: 'NOF', message: 'Transaction not found'}",
        "</#if>"
      ]
    },
    "Validate_ReversalTrnRef": {
      "endpoint": "reversalTrnRef",
      "parameters": [
        { "name": "trnRef", "path": "transaction::TrnReference" },
        { "name": "trnReference", "path": "transaction::TrnReference" },
        { "name": "flowCurrency", "path": "transaction::FlowCurrency" },
        { "name": "flow", "path": "transaction::Flow" },
        { "name": "reversalTrnSeq", "path": "money::ReversalTrnSeqNumber" },
        { "name": "sequence", "path": "money::ReversalTrnSeqNumber" },
        { "name": "foreignValue", "path": "money::ForeignValue" },
        { "name": "category", "path": "money::CategoryCode" }
      ],
      "sql": [
        "SELECT TOP 1",
        "  rpt.CurrencyCode, ",
        "  rpt.ForeignValue, ",
        "  rpt.CategoryCode,",
        "  <#if flowCurrency??>CASE WHEN rpt.CurrencyCode = '${util.escapeSql(flowCurrency)}' THEN 'SAME' ELSE 'DIFFER' END<#else>'UNKNOWN'</#if> AS CurrencyCheck,",
        "  <#if foreignValue??>CASE WHEN rpt.ForeignValue = '${util.escapeSql(foreignValue)}' THEN 'SAME' ELSE 'DIFFER' END<#else>'UNKNOWN'</#if> AS ForeignValueCheck,",
        "  CASE WHEN rpt.SequenceNumber <#if reversalTrnSeq??>= ${util.escapeSql(reversalTrnSeq)}<#else><#if sequence??>= ${util.escapeSql(sequence)}<#else>IS NULL</#if></#if> THEN 'SAME' ELSE 'DIFFER' END AS SequenceNumberCheck,",
        "  CASE WHEN rpt.Flow <#if flow??>= '${util.escapeSql(flow)}'<#else>IS NULL</#if> THEN 'SF' ELSE 'OF' END AS Flow,",
        "  CASE WHEN SUBSTRING(rpt.CategoryCode, 1, 1) = SUBSTRING('${util.escapeSql(category)}', 1,1) THEN 'SC' ELSE 'OC' END AS Category,",
        "  CASE WHEN UPPER(rpt.State) = 'END'/*Reported*/ THEN 'R' ELSE 'N' END AS Reported,",
        "  rpt.CategoryCode as OldCategory",
        "   ABS(rpt.SequenceNumber - ${util.escapeSql(reversalTrnSeq)}) as SequenceDiff",
        "FROM",
        "(",
        "  SELECT",
        "    x.ReportKey AS 'TrnReference',",
        "    x.Flow,",
        "    x.ReportingQualifier,",
        "    x.State,",
        "    ISNULL(rm.SequenceNumber, 1) AS 'SequenceNumber'",
        "    ,REPLACE(REPLACE(ISNULL(rm.RandValue, rm.DomesticValue), ',', ''), ' ', '') AS 'DomesticValue'",
        "    ,CASE",
        "      WHEN ISNULL(rm.ForeignCurrencyCode, '${util.escapeSql(flowCurrency)}') != 'ZAR' OR x.Flow = 'OUT'",
        "        THEN REPLACE(REPLACE(rm.ForeignValue, ',', ''), ' ', '')",
        "      ELSE NULL",
        "    END AS 'ForeignValue'",
        "    ,CASE",
        "      WHEN ISNULL(rm.ForeignCurrencyCode, '${util.escapeSql(flowCurrency)}') != 'ZAR' OR x.Flow = 'OUT'",
        "        THEN ISNULL(rm.ForeignCurrencyCode, '${util.escapeSql(flowCurrency)}')",
        "      ELSE NULL",
        "    END AS 'CurrencyCode'",
        "    ,CASE",
        "      WHEN (x.ReportingQualifier != 'NON REPORTABLE' AND x.ReportingQualifier != 'NOT REPORTABLE')",
        "        THEN LEFT(rm.BoPCategory,3)",
        "      ELSE NULL",
        "    END AS 'CategoryCode'",
        "    ,CASE",
        "      WHEN (x.ReportingQualifier != 'NON REPORTABLE' AND x.ReportingQualifier != 'NOT REPORTABLE') AND rm.SubBoPCategory IS NOT NULL",
        "        THEN rm.SubBoPCategory",
        "      WHEN (x.ReportingQualifier != 'NON REPORTABLE' AND x.ReportingQualifier != 'NOT REPORTABLE') AND rm.SubBoPCategory IS NULL AND (LEN(rm.BoPCategory) > 3)",
        "        THEN SUBSTRING(rm.BoPCategory, 4, 2)",
        "      ELSE NULL",
        "    END AS 'SubCategory'",
        "    ,rm.LocationCountry AS 'LocationCountry'",
        "    ,rm.ReversalTrnRefNumber AS 'ReversalTrnRefNumber'",
        "    ,rm.ReversalSequence AS 'ReversalSequence'",
        "    ,rm.BOPDIRTrnReference AS 'BOPDIRTrnReference'",
        "    ,rm.BOPDIRADCode AS 'BOPDIRADCode'",
        "  from",
        "  (",
        "    SELECT",
        "      r.ReportKey,",
        "      r.GUID as ReportGuid,",
        "      JSON_VALUE(r.Content, '$.State') as 'State',",
        "      JSON_VALUE(r.Content, '$.Report.Flow') as 'Flow',",
        "      JSON_VALUE(r.Content, '$.Report.FlowCurrency') as 'FlowCurrency',",
        "      JSON_VALUE(r.Content, '$.Report.ValueDate') as 'ValueDate',",
        "      JSON_VALUE(r.Content, '$.Report.ReportingQualifier') as 'ReportingQualifier',",
        "      JSON_QUERY(r.Content, '$.Report.MonetaryAmount') as 'MonetaryAmount'",
        "    FROM",
        "      ReportView AS r",
        "    WHERE r.ReportKey = <#if trnRef??>'${util.escapeSql(trnRef)}'<#else>'${util.escapeSql(trnReference)}'</#if> AND r.ReportSpace = 'SARB'",
        "  ) as x",
        "  CROSS APPLY",
        "    OPENJSON(x.MonetaryAmount)",
        "    WITH (",
        "      SequenceNumber INT N'$.SequenceNumber'",
        "      ,MoneyTransferAgentIndicator NVARCHAR(70) N'$.MoneyTransferAgentIndicator'",
        "      ,RandValue NVARCHAR(200) N'$.RandValue'",
        "      ,DomesticValue NVARCHAR(200) N'$.DomesticValue'",
        "      ,ForeignValue NVARCHAR(70) N'$.ForeignValue'",
        "      ,ForeignCurrencyCode NVARCHAR(70) N'$.ForeignCurrencyCode'",
        "      ,BoPCategory NVARCHAR(70) N'$.CategoryCode'",
        "      ,SubBoPCategory NVARCHAR(70) N'$.CategorySubCode'",
        "      ,LocationCountry NVARCHAR(70) N'$.LocationCountry'",
        "      ,ReversalTrnRefNumber NVARCHAR(70) N'$.ReversalTrnRefNumber'",
        "      ,ReversalSequence NVARCHAR(70) N'$.ReversalSequence'",
        "      ,BOPDIRTrnReference NVARCHAR(70) N'$.BOPDIRTrnReference'",
        "      ,BOPDIRADCode NVARCHAR(70) N'$.BOPDIRADCode'",
        "    ) AS rm",
        ") AS rpt",
        "ORDER BY ",
        "rpt.SequenceDiff asc,",
        "rpt.SequenceNumberCheck desc,",
        "rpt.ForeignValueCheck desc,",
        "rpt.CurrencyCheck desc,",
        "rpt.Flow,",
        "rpt.Category"
      ],
      "compose": [
        "<#if response?? && response?size gt 0 && response[0]?? && util.sqlFirstRowDeserialize(response)??>",
        "  <#assign row = util.sqlFirstRowDeserialize(response) >",
        "  <#if row??>",
        "    <#if row.CategoryCode??>",
        "      <#assign reversal = row.CategoryCode?ends_with('00') >",
        "      <#if reversal>",
        "        {status: 'fail', code: 'E02', message: 'Original transaction is a reversal. Cannot reverse a reversal'}",
        "      <#else>",
        "        <#if row.CurrencyCheck == 'DIFFER'>",
        "          {status: 'fail', code: 'W01', message: 'Reversal currency is different from the original transaction. Ensure reversal amount is reasonable'}",
        "        <#else>",
        "          <#if row.SequenceNumberCheck == 'DIFFER'>",
        "            {status: 'fail', code: 'W03', message: 'Reversal Sequence number is different  or does not exist for the original transaction.'}",
        "          <#else>",
        "            <#if row.ForeignValueCheck == 'DIFFER'>",
        "              {status: 'fail', code: 'W02', message: 'Reversal amount is different from the original transaction. Ensure reversal amount is reasonable'}",
        "            <#else>",
        "              <#if row.Flow == 'SF'>",
        "                {status: 'fail', code: 410, message: 'Original transaction and SequenceNumber combination stored on database, but not with an opposite flow'}",
        "              <#else>",
        "                <#if row.Category == 'OC'>",
        "                  {status: 'fail', code: 411, message: 'Incorrect reversal category used with original transaction category. Original category is ${row.CategoryCode}'}",
        "                <#else>",
        "                  <#if row.Reported == 'N'>",
        "                    {status: 'fail', code: 410, message: 'Original transaction stored on database, but has not been reported to the SARB'}",
        "                  <#else>",
        "                    <#if row.CurrencyCheck == 'UNKNOWN'>",
        "                      {status: 'error', code: 'W04', message: 'Currency not supplied to validation call - may differ between original and reversal transactions'}",
        "                    <#else>",
        "                      <#if row.ForeignValueCheck == 'UNKNOWN'>",
        "                        {status: 'error', code: 'W05', message: 'Value not supplied to validation call - may differ between original and reversal transactions'}",
        "                      <#else>",
        "                        {status: 'pass'}",
        "                      </#if>",
        "                    </#if>",
        "                  </#if>",
        "                </#if>",
        "              </#if>",
        "            </#if>",
        "          </#if>",
        "        </#if>",
        "      </#if>",
        "    <#else>",
        "      {status: 'fail', code: 'NOF', message: 'Transaction found, but no matching subsequence located with provided params.'}",
        "    </#if>",
        "  <#else>",
        "    {status: 'fail', code: 'NOF', message: 'Transaction not found with details provided.'}",
        "  </#if>",
        "<#else>",
        "  {status: 'fail', code: 'NOF', message: 'Transaction not found'}",
        "</#if>"
      ]
    },
    "Validate_ValidCCN": {
      "endpoint": "validCCN",
      "parameters": [
        { "name": "CCN", "path": "value" },
        { "name": "valueDate", "path": "transaction::ValueDate" }
      ],
      "sql": [
        "SELECT CASE WHEN AuthBy IS NOT NULL THEN 'Y' ELSE 'N' END as Auth, CASE WHEN LetterOfUndertaking = 'Y' THEN 'Y' ELSE 'N' END as LU, CCN",
        " FROM OR_CustomsClientNumber WITH (NOLOCK)",
        " WHERE CCN = '${util.escapeSql(CCN)}' <#if valueDate??>",
        "   AND (ValidFrom IS NULL OR ValidFrom <= '${util.escapeSql(valueDate)}')",
        "   AND (ValidTo IS NULL OR ValidTo >= '${util.escapeSql(valueDate)}')</#if>"
      ],
      "compose": [
        "<#if response?? && response?size gt 0 && response[0]?? && util.sqlFirstRowDeserialize(response)??>",
        "  <#assign row = util.sqlFirstRowDeserialize(response) >",
        "  <#if row??>",
        "    <#if row.Auth == 'Y' && row.LU == 'N'>",
        "{status: 'pass'}",
        "    <#elseif row.Auth == 'Y' && row.LU == 'Y'>",
        "{status: 'pass', code: 200, message: 'Is LU Client'}",
        "    <#elseif row.Auth == 'N'>",
        "{status: 'fail', code: 322, message: 'Not authorised as a registered customs client number'}",
        "    </#if>",
        "<#else>",
        "    <#if logic.isValidCCN(CCN)>",
        "{status: 'pass'}",
        "    <#else>",
        "{status: 'fail', code: '322', message: 'Not a valid customs client number'}",
        "    </#if>",
        "  </#if>",
        "<#else>",
        "{status: 'fail', code: 'NOF', message: 'Customs client number not found'}",
        "</#if>"
      ]
    },
    "Validate_ValidCCNinUCR": {
      "endpoint": "validCCNinUCR",
      "parameters": [
        { "name": "UCR", "path": "value" },
        { "name": "valueDate", "path": "transaction::ValueDate" }
      ],
      "sql": [
        "SELECT CASE WHEN AuthBy IS NOT NULL THEN 'A' ELSE 'N' END as Auth, CASE WHEN LetterOfUndertaking = 'Y' THEN 'Y' ELSE 'N' END as LU, CCN",
        " FROM OR_CustomsClientNumber WITH (NOLOCK)",
        " WHERE CCN = '${util.escapeSql(CCN)}' <#if valueDate??>",
        "   AND (ValidFrom IS NULL OR ValidFrom <= '${util.escapeSql(valueDate)}')",
        "   AND (ValidTo IS NULL OR ValidTo >= '${util.escapeSql(valueDate)}')</#if>"
      ],
      "compose": [
        "<#if response?? && response?size gt 0 && response[0]?? && util.sqlFirstRowDeserialize(response)??>",
        "  <#assign row = util.sqlFirstRowDeserialize(response) >",
        "  <#if row??>",
        "    <#if (row.Auth == 'Y' || row.Auth == 'A') && row.LU == 'N'>",
        "{status: 'pass'}",
        "    <#elseif (row.Auth == 'Y' || row.Auth == 'A') && row.LU == 'Y'>",
        "{status: 'pass', code: 200, message: 'Is LU Client'}",
        "    <#else>",
        "{status: 'error', code: 322, message: 'Not authorised as a registered customs client number'}",
        "    </#if>",
        "<#else>",
        "    <#if logic.isValidCCN(CCN)>",
        "{status: 'pass'}",
        "    <#else>",
        "{status: 'error', code: '322', message: 'Not a valid customs client number'}",
        "    </#if>",
        "  </#if>",
        "<#else>",
        "    <#if logic.isValidCCN(CCN)>",
        "{status: 'pass'}",
        "    <#else>",
        "{status: 'error', code: '322', message: 'Not a valid customs client number'}",
        "    </#if>",
        "</#if>"
      ]
    },
    "Validate_IndividualSDA": {
      "endpoint": "withinSDALimit",
      "parameters": [
        { "name": "idNumber", "path": "value" },
        { "name": "trnRef", "path": "transaction::TrnReference" },
        { "name": "valueDate", "path": "transaction::ValueDate" },
        { "name": "localAmountForIDNumber", "path": "function::localAmountForIDNumber" }
      ],
      "sql": [
        "SELECT dbo.SDA_CALC('${util.escapeSql(trnRef)}', '${util.escapeSql(valueDate)}', '${util.escapeSql(idNumber)}') AS 'TotalValueForYear'"
      ],
      "compose": [
        "<#setting locale='en_US'>",
        "<#if response?? && response?size gt 0 && response[0]?? && util.sqlFirstRowDeserialize(response)?? && util.sqlFirstRowDeserialize(response).TotalValueForYear??>",
        "  <#assign row = util.sqlFirstRowDeserialize(response) >",
        "  <#assign sdaTotal = ((row.TotalValueForYear?replace(',', '')?replace(' ', '')?number) + (localAmountForIDNumber?number))?replace(',', '')?replace(' ', '')?number >",
        "  <#if (sdaTotal gt 1000000)>",
        "{status: 'fail', code: 'DAL', message: 'You have exceeded the discretionary amount limit of R1,000,000 (${util.escapeSql(idNumber)} used ${row.TotalValueForYear?string(',##0.00')} during ${util.escapeSql(valueDate[0..3])} - Total: ${sdaTotal?string(',##0.00')})'}",
        "  <#else>",
        "{status: 'pass'}",
        "  </#if>",
        "<#else>",
        "{status: 'fail', code: 'NOF', message: 'Failed to acquire SDA balance'}",
        "</#if>"
      ]
    },
    "Validate_IndividualFIA": {
      "endpoint": "withinFIALimit",
      "parameters": [
        { "name": "idNumber", "path": "value" },
        { "name": "trnRef", "path": "transaction::TrnReference" },
        { "name": "valueDate", "path": "transaction::ValueDate" },
        { "name": "localAmountForIDNumberFIA", "path": "function::localAmountForIDNumberFIA" }
      ],
      "sql": [
        "SELECT",
        "  dbo.FIALIMIT_CALC('${util.escapeSql(idNumber)}', '${util.escapeSql(valueDate)}') AS 'FiaLimit',",
        "  dbo.FIA_CALC('${util.escapeSql(trnRef)}', '${util.escapeSql(valueDate)}', '${util.escapeSql(idNumber)}') AS 'TotalValueForYear'"
      ],
      "compose": [
        "<#setting locale='en_US'>",
        "<#if response?? && response?size gt 0 && response[0]?? && util.sqlFirstRowDeserialize(response)?? && util.sqlFirstRowDeserialize(response).TotalValueForYear??>",
        "  <#assign row = util.sqlFirstRowDeserialize(response) >",
        "  <#assign FIATotal = ((row.TotalValueForYear?replace(',', '')?replace(' ', '')?number) + (localAmountForIDNumberFIA?number))?replace(',', '')?replace(' ', '')?number >",
        "  <#assign FIALimit = (row.FiaLimit?replace(',', '')?replace(' ', '')?number)>",
        "  <#if (FIATotal gt FIALimit)>",
        "{status: 'fail', code: 'FIAL', message: 'You have exceeded the FIA amount limit of R${FIALimit?string(',##0.00')} (for ${idNumber} used during ${valueDate[0..3]} of ${(FIATotal - FIALimit)?string(',##0.00')})'}",
        "  <#else>",
        "{status: 'pass'}",
        "  </#if>",
        "<#else>",
        "{status: 'fail', code: 'NOF', message: 'Failed to acquire FIA balance'}",
        "</#if>"
      ]
    }
  },
  "lookups": {
    "adhocSubjects": {
      "sql": [
        "SELECT AdhocSubject as Subject",
        "FROM OR_AdhocSubject WITH (NOLOCK)",
        "WHERE AdhocSubject <> 'IHQnnn'",
        "UNION",
        "SELECT Code as Subject",
        "FROM OR_IHQ WITH (NOLOCK)"
      ]
    },
    "branches": {
      "sql": [
        "SELECT BranchCode as code, BranchName as name, HubCode as hubCode, HubName as hubName,",
        "ISNULL(ValidFrom, '2000-01-01') as validFrom, ValidTo as validTo",
        "FROM OR_Branch WITH (NOLOCK)",
        "WHERE BranchName NOT LIKE 'Unknown%'"
      ]
    },
    "categories": {
      "sql": [
        "SELECT CASE WHEN Flow = 'I' THEN 'IN' ELSE 'OUT' END as flow,",
        "CategoryCode as code,",
        "Section as section,",
        "SubSection as subsection,",
        "Description as description,",
        "OldCodes as oldcodes",
        "FROM OR_Category WITH (NOLOCK)",
        "WHERE [Description] NOT LIKE 'Unknown%' AND [Version] = 3"
      ]
    },
    "countries": {
      "sql": [
        "SELECT CountryCode, Name",
        "FROM OR_Country WITH (NOLOCK)",
        "WHERE Name NOT LIKE 'Unknown%'"
      ],
      "compose": [
        "<#assign rows = util.sqlDeserialize(response)>",
        "[",
        "<#list rows as row>",
        "  {code: '${row.CountryCode}', name: '${util.escapeJavaScript(row.Name)}'}<#if row_has_next>,</#if>",
        "</#list>",
        "]"
      ]
    },
    "currencies": {
      "sql": [
        "SELECT CurrencyCode as code,",
        "Name as name",
        "FROM OR_Currency WITH (NOLOCK)",
        "WHERE Name NOT LIKE 'Unknown%'"
      ]
    },
    "customsOffices": {
      "sql": [
        "SELECT OfficeCode as code,",
        "OfficeName as name",
        "FROM OR_CustomsOffice WITH (NOLOCK)",
        "WHERE OfficeName NOT LIKE 'Unknown%'"
      ]
    },
    "luClientCCNs": {
      "sql": [
        "SELECT [CCN] AS ccn, [AccountName] AS accountName, [AccountNumber] AS accountNumber",
        "FROM [OR_CustomsClientNumber]",
        "WHERE [LetterOfUndertaking] = 'Y'"
      ]
    },
    "holdcoCompanies": {
      "sql": [
        "SELECT AccountName as companyName,",
        "AccountNumber as accountNumber,",
        "RegistrationNumber as registrationNumber",
        "FROM OR_HOLDCO WITH (NOLOCK)"
      ]
    },
    "ihqCompanies": {
      "sql": [
        "SELECT CompanyName as companyName,",
        "Code as ihqCode,",
        "RegistrationNumber as registrationNumber",
        "FROM OR_IHQ WITH (NOLOCK)"
      ]
    },
    "moneyTransferAgents": {
      "sql": [
        "SELECT MoneyTransferAgentID as Agent",
        "FROM OR_MoneyTransferAgent WITH (NOLOCK)"
      ]
    },
    "mtaAccounts": {
      "sql": [
        "SELECT AccountNumber as accountNumber, ",
        "  MoneyTransferAgentID as MTA, ",
        "  rs.RulingsSection as rulingSection, ",
        "  ADLALevel as ADLALevel, ",
        "  CASE WHEN ADLAInd = 'Y' THEN 'true' ELSE 'false' END as isADLA ",
        "FROM OR_MTAAccount mta WITH (NOLOCK) ",
        "LEFT JOIN OR_RulingsSection rs on rs.RulingsSectionID =  mta.RulingSectionID"
      ]
    }
  }
}