{
  "title": "ErrorModel",
  "$ref": "#/definitions/ErrorModel",
  "definitions": {
    "ErrorModel": {
      "type": "object",
      "properties": {
        "ErrorType": {
          "type": "string"
        },
        "Message": {
          "type": "string"
        }
      }
    }
  }
}