{
  "olCompCode":	"1000",
  "olBranchCode":	"1000",
  "odtValueDate":	"{valueDate}",
  "osTrxReference":	"{os_trx_reference}",
  "osOriginatingBank":	"ALBRZAJJ",
  "osCorrespondentBank":	"ABSAZAJJ",
  "osReceivingBank":	"CITIUKXX",
  "osSurname":	"Cricket",
  "osName":	"Jimney",
  "osEntityName":	null,
  "osAccNbr":	"123654789",
  "osAddressLine1":	"28 Willis Rd",
  "osAddressLine2":	"Blairgowrie",
  "osSuburb":	"Randburg",
  "osCity":	"Johannesburg",
  "osZipcode":	"2194",
  "osCountry":	"ZA",
  "odecRandValue":	"100.00",
  "odecForeignValue":	"5.00",
  "osForeignCyCode":	"UK",
  "odecPaymentValue":	"5.00",
  "osPayCyCode":	"UK",
  "osAccName":	"J von CRIEK",
  "osAccountNbr":	"321456987",
  "osResidentSurname":	"Criek",
  "osResidentName":	"Jem",
  "osGender":	"M",



  "odtBirthDate":	"2019-07-16",

  "osIdNumber":	"8008045153082",
  "osPermitNbr":	null,
  "osForeignIdNbr":	null,
  "osForeignIdCountry":	null,
  "osTaxNbr":	null,
  "osVatNbr":	null,
  "osCustomClientNbr":	null,
  "osStreetAdd1":	"28 Willis Rd",
  "osStreetAdd2":	"Blairgowrie",
  "osStreetSuburb":	"Randburg",
  "osStreetCityDesc":	"Johannesburg",
  "osStreetProvince":	"Gauteng",
  "osStreetPostalCodeDesc":	"2194",

  "osPostalAdd1":	"28 Willis Rd",
  "osPostalAdd2":	"Blairgowrie",
  "osPostalSuburb":	"Randburg",
  "osPostalCityDesc":	"Johannesburg",
  "osPostalProvince":	"2194",
  "osPostalCodeDesc":	"Varchar2",

  "osContactName":	"Jem",
  "osContactSurname":	"Criek",
  "osEmail":	"acidcow+albr@gmail.com",
  "osFax":	null,
  "osTel":	"0662578433",

  "osResidentEntityName":	null,
  "osTradingName":	null,
  "osRegistrationNbr":	null,
  "osInstitutionalSector":	null,
  "osIndustrialClassification":	null,



  "osThirdPartyTaxNbr":	null,
  "osThirdPartyVatNbr":	null,
  "osThirdPartyCustomClientNbr":	null,
  "osThirdPartySurname":	null,
  "osThirdPartyName":	null,
  "osThirdPartyGender":	null,
  "odtThirdPartyBirthDate":	null,
  "osThirdPartyIdNbr":	null,
  "osThirdPartyPermitNbr":	null,

  "osThirdPartyEntityName":	null,
  "osThirdPartyRegistrationNbr":	null,

  "osThirdPartyStreetAdd1":	null,
  "osThirdPartyStreetAdd2":	null,
  "osThirdPartyStreetSuburb":	null,
  "osThirdPartyStreetCityDesc":	null,
  "osThirdPartyStreetProvince":	null,
  "osThirdPartyStreetPostCodeDesc":	null,

  "osThirdPartyPostalAdd1":	null,
  "osThirdPartyPostalAdd2":	null,
  "osThirdPartyPostalSuburb":	null,
  "osThirdPartyPostalCityDesc":	null,
  "osThirdPartyPostalProvince":	null,
  "osThirdPartyPostalCodeDesc":	null,

  "osThirdPartyContactName":	null,
  "osThirdPartyContactSurname":	null,
  "osThirdPartyEmail":	null,
  "osThirdPartyFax":	null,
  "osThirdPartyTel":	null
}