{
  "title": "Report",
  "$ref": "#/definitions/Report",
  "definitions": {
    "Report": {
      "type": "object",
      "properties": {
        "BranchCode": {
          "type": "string"
        },
        "BranchName": {
          "type": "string"
        },
        "CorrespondentBank": {
          "type": "string"
        },
        "CorrespondentCountry": {
          "type": "string"
        },
        "DomesticCurrency": {
          "type": "string"
        },
        "DrCr": {
          "type": "string"
        },
        "Flow": {
          "type": "string"
        },
        "FlowCurrency": {
          "type": "string"
        },
        "HubCode": {
          "type": "string"
        },
        "HubName": {
          "type": "string"
        },
        "MonetaryAmount": {
          "type": "array",
          "items": {
            "$ref": "#/definitions/MonetaryAmount"
          }
        },
        "NonResident": {
          "$ref": "#/definitions/NonResident"
        },
        "OriginatingBank": {
          "type": "string"
        },
        "OriginatingCountry": {
          "type": "string"
        },
        "ReceivingBank": {
          "type": "string"
        },
        "ReceivingCountry": {
          "type": "string"
        },
        "ReplacementOriginalReference": {
          "type": "string"
        },
        "ReplacementTransaction": {
          "type": "string"
        },
        "ReportingQualifier": {
          "type": "string"
        },
        "Resident": {
          "$ref": "#/definitions/Resident"
        },
        "TotalForeignValue": {
          "type": "string"
        },
        "TotalValue": {
          "type": "string"
        },
        "TrnReference": {
          "type": "string"
        },
        "ValueDate": {
          "type": "string"
        }
      }
    },
    "AdHocRequirement": {
      "type": "object",
      "properties": {
        "Description": {
          "type": "string"
        },
        "Subject": {
          "type": "string"
        }
      }
    },
    "ContactDetails": {
      "type": "object",
      "properties": {
        "ContactName": {
          "type": "string"
        },
        "ContactSurname": {
          "type": "string"
        },
        "Email": {
          "type": "string"
        },
        "Fax": {
          "type": "string"
        },
        "Telephone": {
          "type": "string"
        }
      }
    },
    "Exception": {
      "type": "object",
      "properties": {
        "Country": {
          "type": "string"
        },
        "ExceptionName": {
          "type": "string"
        }
      }
    },
    "ImportExport": {
      "type": "object",
      "properties": {
        "ImportControlNumber": {
          "type": "string"
        },
        "MRNNotOnIVS": {
          "type": "string"
        },
        "PaymentCurrencyCode": {
          "type": "string"
        },
        "PaymentValue": {
          "type": "string"
        },
        "TransportDocumentNumber": {
          "type": "string"
        },
        "UCR": {
          "type": "string"
        }
      }
    },
    "Individual": {
      "type": "object",
      "properties": {
        "AccountIdentifier": {
          "type": "string"
        },
        "AccountName": {
          "type": "string"
        },
        "AccountNumber": {
          "type": "string"
        },
        "CardNumber": {
          "type": "string"
        },
        "ContactDetails": {
          "$ref": "#/definitions/ContactDetails"
        },
        "CustomsClientNumber": {
          "type": "string"
        },
        "DateOfBirth": {
          "type": "string"
        },
        "ForeignIDCountry": {
          "type": "string"
        },
        "ForeignIDNumber": {
          "type": "string"
        },
        "Gender": {
          "type": "string"
        },
        "IDNumber": {
          "type": "string"
        },
        "Name": {
          "type": "string"
        },
        "PassportCountry": {
          "type": "string"
        },
        "PassportNumber": {
          "type": "string"
        },
        "PostalAddress": {
          "$ref": "#/definitions/PostalAddress"
        },
        "StreetAddress": {
          "$ref": "#/definitions/StreetAddress"
        },
        "SupplementaryCardIndicator": {
          "type": "string"
        },
        "Surname": {
          "type": "string"
        },
        "TaxClearanceCertificateIndicator": {
          "type": "string"
        },
        "TaxClearanceCertificateReference": {
          "type": "string"
        },
        "TaxNumber": {
          "type": "string"
        },
        "TempResPermitNumber": {
          "type": "string"
        },
        "VATNumber": {
          "type": "string"
        }
      }
    },
    "Entity": {
      "type": "object",
      "properties": {
        "AccountIdentifier": {
          "type": "string"
        },
        "AccountName": {
          "type": "string"
        },
        "AccountNumber": {
          "type": "string"
        },
        "CardNumber": {
          "type": "string"
        },
        "ContactDetails": {
          "$ref": "#/definitions/ContactDetails"
        },
        "CustomsClientNumber": {
          "type": "string"
        },
        "EntityName": {
          "type": "string"
        },
        "IndustrialClassification": {
          "type": "string"
        },
        "InstitutionalSector": {
          "type": "string"
        },
        "PostalAddress": {
          "$ref": "#/definitions/PostalAddress"
        },
        "RegistrationNumber": {
          "type": "string"
        },
        "StreetAddress": {
          "$ref": "#/definitions/StreetAddress"
        },
        "SupplementaryCardIndicator": {
          "type": "string"
        },
        "TaxClearanceCertificateIndicator": {
          "type": "string"
        },
        "TaxClearanceCertificateReference": {
          "type": "string"
        },
        "TaxNumber": {
          "type": "string"
        },
        "TradingName": {
          "type": "string"
        },
        "VATNumber": {
          "type": "string"
        }
      }
    },
    "IndustrialClassification": {
      "type": "object",
      "properties": {
        "Code": {
          "type": "string"
        },
        "Description": {
          "type": "string"
        }
      }
    },
    "InstitutionalSector": {
      "type": "object",
      "properties": {
        "Code": {
          "type": "string"
        },
        "Description": {
          "type": "string"
        }
      }
    },
    "MonetaryAmount": {
      "type": "object",
      "properties": {
        "AdHocRequirement": {
          "$ref": "#/definitions/AdHocRequirement"
        },
        "BOPDIRADCode": {
          "type": "string"
        },
        "BOPDIRRECode": {
          "type": "string"
        },
        "BOPDIRTrnReference": {
          "type": "string"
        },
        "CannotCategorize": {
          "type": "string"
        },
        "CardChargeBack": {
          "type": "string"
        },
        "CardFraudulentTransactionIndicator": {
          "type": "string"
        },
        "CardIndicator": {
          "type": "string"
        },
        "CategoryCode": {
          "type": "string"
        },
        "CategorySubCode": {
          "type": "string"
        },
        "DomesticValue": {
          "type": "string"
        },
        "ElectronicCommerceIndicator": {
          "type": "string"
        },
        "ForeignCardHoldersCashWithdrawalsDomesticValue": {
          "type": "string"
        },
        "ForeignCardHoldersPurchasesDomesticValue": {
          "type": "string"
        },
        "ForeignValue": {
          "type": "string"
        },
        "ImportExport": {
          "type": "array",
          "items": {
            "$ref": "#/definitions/ImportExport"
          }
        },
        "LoanInterestRate": {
          "type": "string"
        },
        "LoanRefNumber": {
          "type": "string"
        },
        "LoanTenor": {
          "type": "string"
        },
        "LocationCountry": {
          "type": "string"
        },
        "MoneyTransferAgentIndicator": {
          "type": "string"
        },
        "POSEntryMode": {
          "type": "string"
        },
        "RegulatorAuth": {
          "$ref": "#/definitions/RegulatorAuth"
        },
        "ReversalTrnRefNumber": {
          "type": "string"
        },
        "ReversalTrnSeqNumber": {
          "type": "string"
        },
        "SWIFTDetails": {
          "type": "string"
        },
        "SequenceNumber": {
          "type": "string"
        },
        "StrateRefNumber": {
          "type": "string"
        },
        "ThirdParty": {
          "$ref": "#/definitions/ThirdParty"
        }
      }
    },
    "NRAddress": {
      "type": "object",
      "properties": {
        "AddressLine1": {
          "type": "string"
        },
        "AddressLine2": {
          "type": "string"
        },
        "AddressLine3": {
          "type": "string"
        },
        "City": {
          "type": "string"
        },
        "Country": {
          "type": "string"
        },
        "PostalCode": {
          "type": "string"
        },
        "State": {
          "type": "string"
        },
        "Suburb": {
          "type": "string"
        }
      }
    },
    "NREntity": {
      "type": "object",
      "properties": {
        "AccountIdentifier": {
          "type": "string"
        },
        "AccountNumber": {
          "type": "string"
        },
        "Address": {
          "$ref": "#/definitions/NRAddress"
        },
        "CardMerchantCode": {
          "type": "string"
        },
        "CardMerchantName": {
          "type": "string"
        },
        "EntityName": {
          "type": "string"
        }
      }
    },
    "NRException": {
      "type": "object",
      "properties": {
        "ExceptionName": {
          "type": "string"
        }
      }
    },
    "NRIndividual": {
      "type": "object",
      "properties": {
        "AccountIdentifier": {
          "type": "string"
        },
        "AccountNumber": {
          "type": "string"
        },
        "Address": {
          "$ref": "#/definitions/NRAddress"
        },
        "Gender": {
          "type": "string"
        },
        "Name": {
          "type": "string"
        },
        "PassportCountry": {
          "type": "string"
        },
        "PassportNumber": {
          "type": "string"
        },
        "Surname": {
          "type": "string"
        }
      }
    },
    "NonResident": {
      "type": "object",
      "properties": {
        "Entity": {
          "$ref": "#/definitions/NREntity"
        },
        "Exception": {
          "$ref": "#/definitions/NRException"
        },
        "Individual": {
          "$ref": "#/definitions/NRIndividual"
        }
      }
    },
    "PostalAddress": {
      "type": "object",
      "properties": {
        "AddressLine1": {
          "type": "string"
        },
        "AddressLine2": {
          "type": "string"
        },
        "City": {
          "type": "string"
        },
        "PostalCode": {
          "type": "string"
        },
        "Province": {
          "type": "string"
        },
        "Suburb": {
          "type": "string"
        }
      }
    },
    "RegulatorAuth": {
      "type": "object",
      "properties": {
        "CBAuthAppNumber": {
          "type": "string"
        },
        "CBAuthRefNumber": {
          "type": "string"
        },
        "REInternalAuthNumber": {
          "type": "string"
        },
        "REInternalAuthNumberDate": {
          "type": "string"
        },
        "RulingsSection": {
          "type": "string"
        }
      }
    },
    "Resident": {
      "type": "object",
      "properties": {
        "Entity": {
          "$ref": "#/definitions/Entity"
        },
        "Exception": {
          "$ref": "#/definitions/Exception"
        },
        "Individual": {
          "$ref": "#/definitions/Individual"
        }
      }
    },
    "StreetAddress": {
      "type": "object",
      "properties": {
        "AddressLine1": {
          "type": "string"
        },
        "AddressLine2": {
          "type": "string"
        },
        "City": {
          "type": "string"
        },
        "PostalCode": {
          "type": "string"
        },
        "Province": {
          "type": "string"
        },
        "Suburb": {
          "type": "string"
        }
      }
    },
    "TPContactDetails": {
      "type": "object",
      "properties": {
        "ContactName": {
          "type": "string"
        },
        "ContactSurname": {
          "type": "string"
        },
        "Email": {
          "type": "string"
        },
        "Fax": {
          "type": "string"
        },
        "Telephone": {
          "type": "string"
        }
      }
    },
    "TPEntity": {
      "type": "object",
      "properties": {
        "Name": {
          "type": "string"
        },
        "RegistrationNumber": {
          "type": "string"
        }
      }
    },
    "TPIndividual": {
      "type": "object",
      "properties": {
        "DateOfBirth": {
          "type": "string"
        },
        "Gender": {
          "type": "string"
        },
        "IDNumber": {
          "type": "string"
        },
        "Name": {
          "type": "string"
        },
        "PassportCountry": {
          "type": "string"
        },
        "PassportNumber": {
          "type": "string"
        },
        "Surname": {
          "type": "string"
        },
        "TempResPermitNumber": {
          "type": "string"
        }
      }
    },
    "TPPostalAddress": {
      "type": "object",
      "properties": {
        "AddressLine1": {
          "type": "string"
        },
        "AddressLine2": {
          "type": "string"
        },
        "City": {
          "type": "string"
        },
        "PostalCode": {
          "type": "string"
        },
        "Province": {
          "type": "string"
        },
        "Suburb": {
          "type": "string"
        }
      }
    },
    "TPStreetAddress": {
      "type": "object",
      "properties": {
        "AddressLine1": {
          "type": "string"
        },
        "AddressLine2": {
          "type": "string"
        },
        "City": {
          "type": "string"
        },
        "PostalCode": {
          "type": "string"
        },
        "Province": {
          "type": "string"
        },
        "Suburb": {
          "type": "string"
        }
      }
    },
    "ThirdParty": {
      "type": "object",
      "properties": {
        "ContactDetails": {
          "$ref": "#/definitions/TPContactDetails"
        },
        "CustomsClientNumber": {
          "type": "string"
        },
        "Entity": {
          "$ref": "#/definitions/TPEntity"
        },
        "Individual": {
          "$ref": "#/definitions/TPIndividual"
        },
        "PostalAddress": {
          "$ref": "#/definitions/TPPostalAddress"
        },
        "StreetAddress": {
          "$ref": "#/definitions/TPStreetAddress"
        },
        "TaxNumber": {
          "type": "string"
        },
        "VATNumber": {
          "type": "string"
        }
      }
    }
  }
}