{
  "title": "Report",
  "$ref": "#/definitions/Meta",
  "definitions": {
    "Meta": {
      "type": "object",
      "properties": {
        "ClientRef": {
          "type": "string"
        },
        "RelatedRef": {
          "type": "string"
        },
        "SourceSystem": {
          "type": "string"
        },
        "SourceRef": {
          "type": "string"
        }
      }
    }
  }
}
