{
  "#_COMMENT_00": "*************************************************************************",
  "#_COMMENT_01": "**The params listed below will be pulled from the request header and/or**",
  "#_COMMENT_02": "**request params.  The resulting key-value pairs will be added to the  **",
  "#_COMMENT_03": "**meta map associated with the ReportServicesAuthentication object and **",
  "#_COMMENT_04": "**will be used for filtering records in the persistence layers etc.    **",
  "#_COMMENT_05": "*************************************************************************",
  "authToken": {
    "request": {
      "OVID": {
        "list": true,
        "duplicateHandling": "Replace",
        "listSeparator": ",",
        "headersOrRequestParams": "BOTH"
      },
      "GCN": {
        "list": false,
        "duplicateHandling": "Replace"
      },
      "USERNAME": {
        "list": false,
        "duplicateHandling": "First"
      },
      "Forwarded": {
        "list": false,
        "duplicateHandling": "Replace",
        "headersOrRequestParams": "HEADERS"
      },
      "From": {
        "list": false,
        "duplicateHandling": "Replace",
        "headersOrRequestParams": "HEADERS"
      },
      "User-Agent": {
        "list": false,
        "duplicateHandling": "Replace",
        "headersOrRequestParams": "HEADERS"
      },
      "Via": {
        "list": false,
        "duplicateHandling": "Replace",
        "headersOrRequestParams": "HEADERS"
      },
      "x-ibm-client-id": {
        "list": false,
        "duplicateHandling": "Replace",
        "headersOrRequestParams": "HEADERS"
      },
      "x-ibm-client-secret": {
        "list": false,
        "duplicateHandling": "Replace",
        "headersOrRequestParams": "HEADERS"
      },
      "X-Forwarded-For": {
        "list": false,
        "duplicateHandling": "Replace",
        "headersOrRequestParams": "HEADERS"
      }
    }
  },

  "#_COMMENT_00": "*************************************************************************",
  "#_COMMENT_01": "**The params listed below will be pulled from the Auth Token or request**",
  "#_COMMENT_02": "**header and/or params.  The resulting key-value pairs will be added to**",
  "#_COMMENT_03": "**the audit record stored with any of the objects persisted in the     **",
  "#_COMMENT_04": "**selected, underlying data store implementation.                      **",
  "#_COMMENT_05": "*************************************************************************",
  "audit": {
    "GCN": {
      "list": false,
      "duplicateHandling": "Replace",
      "headersOrRequestParams": "HEADERS"
    },
    "Name": {
      "list": false,
      "duplicateHandling": "Replace"
    },
    "FullName": {
      "list": false,
      "duplicateHandling": "Replace"
    },
    "TemplateUser": {
      "list": false,
      "duplicateHandling": "Replace"
    },
    "Forwarded": {
      "list": false,
      "duplicateHandling": "Replace",
      "headersOrRequestParams": "HEADERS"
    },
    "From": {
      "list": false,
      "duplicateHandling": "Replace",
      "headersOrRequestParams": "HEADERS"
    },
    "User-Agent": {
      "list": false,
      "duplicateHandling": "Replace",
      "headersOrRequestParams": "HEADERS"
    },
    "Via": {
      "list": false,
      "duplicateHandling": "Replace",
      "headersOrRequestParams": "HEADERS"
    },
    "x-ibm-client-id": {
      "list": false,
      "duplicateHandling": "Replace",
      "headersOrRequestParams": "HEADERS"
    },
    "x-ibm-client-secret": {
      "list": false,
      "duplicateHandling": "Replace",
      "headersOrRequestParams": "HEADERS"
    },
    "X-Forwarded-For": {
      "list": false,
      "duplicateHandling": "Replace",
      "headersOrRequestParams": "HEADERS"
    }
  }
}
