{
  "#_COMMENT_00": "*************************************************************************",
  "#_COMMENT_01": "**These are names for the defined external key sources where RDS can go**",
  "#_COMMENT_02": "**fetch the specified public key ID - as per a received JWT.           **",
  "#_COMMENT_03": "*************************************************************************",

  "sources": [
    ""
  ]
}