{
  "accountholder_list": {
    "parameters": [
      { "name": "filter1", "path": "filter1" },
      { "name": "filter2", "path": "filter2" }
    ],
    "rest": {
      "verb": "POST",
      "url": "http://saleslogix.investec.co.za:10080/clients/outsourcer",
      "body": [
        "<?xml version=\"1.0\" encoding=\"UTF-8\" standalone=\"yes\"?>",
        "<OutsourcerClientList>",
        " <Outsourcer>${filter1}</Outsourcer>",
        " <Filter>${filter2}</Filter>",
        "</OutsourcerClientList>"
      ]
    },
    "compose": [
      "<#assign doc = util.xmlDeserialize(response) >",
      "[",
      "<#if doc.Datalist??>",
      "<#list doc.Datalist as data>",
      "  {Reference: '${util.escapeJavaScript(data.Ref)}', Description: '${util.escapeJavaScript(data.Description)}'}<#if data_has_next>,</#if>",
      "</#list>",
      "</#if>",
      "]"
    ]
  },
  "accountholder_detail": {
    "parameters": [
      { "name": "reference", "path": "reference" }
    ],
    "rest": {
      "verb": "GET",
      "url": "http://saleslogix.investec.co.za:10080/clients/byref?reference=${reference}"
    },
    "compose": [
      "<#assign doc = util.xmlDeserialize(response) >",
      "<#if doc.indv??>",
      "{Individual: {Surname: '${util.escapeJavaScript(doc.indv.surname)}'}}",
      "</#if>"
    ]
  },
  "resolve_ovid_from_gcn": {
    "parameters": [
      { "name": "gcn", "path": "gcn" }
    ],
    "rest": {
      "verb": "GET",
      "url": "${config.investec.saleslogix}/GCN/${gcn}/"
    }
  },
  "send_SARB_Cancelled": {
    "parameters": [
      { "name": "reportSpace", "path": "" },
      { "name": "trnReference", "path": "" },
      { "name": "queueName", "path": "" },
      { "name": "content", "path": "" }
    ],
    "rest": {
      "verb": "POST",
      "url": "http://localhost:18080/notify?destination=queue://TestQ",
      "headers": [
        { "name": "Authorization", "value": "Basic ${util.encodeBase64('admin:admin')}" },
        { "name": "Content-Type", "value": "application/json; charset=UTF-8" }
      ],
      "body": "body=${content}"
    },
    "#rest": {
      "verb": "POST",
      "url": "http://localhost:8161/api/message?destination=queue://TestQ",
      "headers": [
        { "name": "Authorization", "value": "Basic ${util.encodeBase64('admin:admin')}" },
        { "name": "Content-Type", "value": "application/x-www-form-urlencoded; charset=UTF-8" }
      ],
      "body": "body=${util.encodeUrl(content)}"
    }
  },
  "send_SARB_Completed": {
    "parameters": [
      { "name": "reportSpace", "path": "" },
      { "name": "trnReference", "path": "" },
      { "name": "queueName", "path": "" },
      { "name": "content", "path": "" }
    ],
    "rest": {
      "verb": "POST",
      "url": "http://admin:admin@localhost:8161/api/message?destination=queue://TestQ",
      "headers": [
        { "name": "Authorization", "value": "Basic ${util.encodeBase64('admin:admin')}" },
        { "name": "Content-Type", "value": "application/x-www-form-urlencoded; charset=UTF-8" }
      ],
      "body": "body=${util.encodeUrl(content)}"
    }
  }
}
