{
  "lists": [
    {
      "name":"New",
      "fields": [
        {"label": "Reference", "report": "TrnReference"},
        {"label": "SourceSystem", "meta": "SourceSystem"},
        {"label": "Status", "system": "State"},
        {"label": "Value Date", "report": "ValueDate"},
        {"label": "Currency", "report": "FlowCurrency"},
        {"label": "Amount", "report": "TotalForeignValue"},
        {"label": "ZAR", "report": "ZAREquivalent"},
        {"label": "Flow", "report": "Flow"},
        {"label": "DrCr", "meta": "DrCr"},
        {"label": "SourceRef", "meta": "SourceRef"},
        {"label": "ClientRef", "meta": "ClientRef"},
        {"label": "OriginBank", "report": "OriginatingBank"},
        {"label": "RecipientBank", "report": "ReceivingBank"},
        {"label": "DealerType", "meta": "DealerType"},
        {"label": "BranchName", "report": "BranchName"},
        {"label": "BranchCode", "report": "BranchCode"},
        {"label": "HubName", "report": "HubName"},
        {"label": "HubCode", "report": "HubCode"}
      ],
      "criteria": [
        {"system": "State", "value": "New"},
        {"report": "TrnReference", "values": "${SEARCH:trnReference}"},
        {"report": "ValueDate", "values": "${SEARCH:valueDate}"},
        {"report": "Flow", "values": "${SEARCH:flow}"},
        {"report": "FlowCurrency", "values": "${SEARCH:currency}"},
        {"meta": "SourceSystem", "values": "${SEARCH:source}"},
        {"meta": "SourceRef", "values": "${SEARCH:sourceRef}"},
        {"meta": "ClientRef", "values": "${SEARCH:clientRef}"},
        {"report": "OriginatingBank", "values": "${SEARCH:originatingBank}"},
        {"report": "ReceivingBank", "values": "${SEARCH:receivingBank}"},
        {"report": "OriginatingCountry", "values": "${SEARCH:originatingCountry}"},
        {"report": "ReceivingCountry", "values": "${SEARCH:receivingCountry}"},
        {"report": "HubCode", "values": "${SEARCH:hubCode}"},
        {"report": "HubName", "values": "${SEARCH:hubName}"},
        {"report": "BranchCode", "values": "${SEARCH:branchCode}"},
        {"report": "BranchName", "values": "${SEARCH:branchName}"},
        {"meta": "DealerType", "values": "${SEARCH:dealerType}"},
        {"report": "TotalForeignValue", "values": "${SEARCH:amount}"},
        {"meta": "DrCr", "values": "${SEARCH:drCr}"}
      ]
    },
    {
      "name":"Incomplete",
      "fields": [
        {"label": "Reference", "report": "TrnReference"},
        {"label": "SourceSystem", "meta": "SourceSystem"},
        {"label": "Status", "system": "State"},
        {"label": "Value Date", "report": "ValueDate"},
        {"label": "Currency", "report": "FlowCurrency"},
        {"label": "Amount", "report": "TotalForeignValue"},
        {"label": "ZAR", "report": "ZAREquivalent"},
        {"label": "Flow", "report": "Flow"},
        {"label": "DrCr", "meta": "DrCr"},
        {"label": "SourceRef", "meta": "SourceRef"},
        {"label": "ClientRef", "meta": "ClientRef"},
        {"label": "OriginBank", "report": "OriginatingBank"},
        {"label": "RecipientBank", "report": "ReceivingBank"},
        {"label": "DealerType", "meta": "DealerType"},
        {"label": "BranchName", "report": "BranchName"},
        {"label": "BranchCode", "report": "BranchCode"},
        {"label": "HubName", "report": "HubName"},
        {"label": "HubCode", "report": "HubCode"}
      ],
      "criteria": [
        {"system": "State", "value": "Incomplete"},
        {"report": "TrnReference", "values": "${SEARCH:trnReference}"},
        {"report": "ValueDate", "values": "${SEARCH:valueDate}"},
        {"report": "Flow", "values": "${SEARCH:flow}"},
        {"report": "FlowCurrency", "values": "${SEARCH:currency}"},
        {"meta": "SourceSystem", "values": "${SEARCH:source}"},
        {"meta": "SourceRef", "values": "${SEARCH:sourceRef}"},
        {"meta": "ClientRef", "values": "${SEARCH:clientRef}"},
        {"report": "OriginatingBank", "values": "${SEARCH:originatingBank}"},
        {"report": "ReceivingBank", "values": "${SEARCH:receivingBank}"},
        {"report": "OriginatingCountry", "values": "${SEARCH:originatingCountry}"},
        {"report": "ReceivingCountry", "values": "${SEARCH:receivingCountry}"},
        {"report": "HubCode", "values": "${SEARCH:hubCode}"},
        {"report": "HubName", "values": "${SEARCH:hubName}"},
        {"report": "BranchCode", "values": "${SEARCH:branchCode}"},
        {"report": "BranchName", "values": "${SEARCH:branchName}"},
        {"meta": "DealerType", "values": "${SEARCH:dealerType}"},
        {"report": "TotalForeignValue", "values": "${SEARCH:amount}"},
        {"meta": "DrCr", "values": "${SEARCH:drCr}"}
      ]
    },
    {
      "name":"Completed",
      "fields": [
        {"label": "Reference", "report": "TrnReference"},
        {"label": "SourceSystem", "meta": "SourceSystem"},
        {"label": "Status", "system": "State"},
        {"label": "Value Date", "report": "ValueDate"},
        {"label": "Currency", "report": "FlowCurrency"},
        {"label": "Amount", "report": "TotalForeignValue"},
        {"label": "ZAR", "report": "ZAREquivalent"},
        {"label": "Flow", "report": "Flow"},
        {"label": "DrCr", "meta": "DrCr"},
        {"label": "SourceRef", "meta": "SourceRef"},
        {"label": "ClientRef", "meta": "ClientRef"},
        {"label": "OriginBank", "report": "OriginatingBank"},
        {"label": "RecipientBank", "report": "ReceivingBank"},
        {"label": "DealerType", "meta": "DealerType"},
        {"label": "BranchName", "report": "BranchName"},
        {"label": "BranchCode", "report": "BranchCode"},
        {"label": "HubName", "report": "HubName"},
        {"label": "HubCode", "report": "HubCode"}
      ],
      "criteria": [
        {"system": "State", "value": "End, Complete"},
        {"report": "TrnReference", "values": "${SEARCH:trnReference}"},
        {"report": "ValueDate", "values": "${SEARCH:valueDate}"},
        {"report": "Flow", "values": "${SEARCH:flow}"},
        {"report": "FlowCurrency", "values": "${SEARCH:currency}"},
        {"meta": "SourceSystem", "values": "${SEARCH:source}"},
        {"meta": "SourceRef", "values": "${SEARCH:sourceRef}"},
        {"meta": "ClientRef", "values": "${SEARCH:clientRef}"},
        {"report": "OriginatingBank", "values": "${SEARCH:originatingBank}"},
        {"report": "ReceivingBank", "values": "${SEARCH:receivingBank}"},
        {"report": "OriginatingCountry", "values": "${SEARCH:originatingCountry}"},
        {"report": "ReceivingCountry", "values": "${SEARCH:receivingCountry}"},
        {"report": "HubCode", "values": "${SEARCH:hubCode}"},
        {"report": "HubName", "values": "${SEARCH:hubName}"},
        {"report": "BranchCode", "values": "${SEARCH:branchCode}"},
        {"report": "BranchName", "values": "${SEARCH:branchName}"},
        {"meta": "DealerType", "values": "${SEARCH:dealerType}"},
        {"report": "TotalForeignValue", "values": "${SEARCH:amount}"},
        {"meta": "DrCr", "values": "${SEARCH:drCr}"}
      ]
    },
    {
      "name":"Cancelled",
      "fields": [
        {"label": "Reference", "report": "TrnReference"},
        {"label": "SourceSystem", "meta": "SourceSystem"},
        {"label": "Status", "system": "State"},
        {"label": "Value Date", "report": "ValueDate"},
        {"label": "Currency", "report": "FlowCurrency"},
        {"label": "Amount", "report": "TotalForeignValue"},
        {"label": "ZAR", "report": "ZAREquivalent"},
        {"label": "Flow", "report": "Flow"},
        {"label": "DrCr", "meta": "DrCr"},
        {"label": "SourceRef", "meta": "SourceRef"},
        {"label": "ClientRef", "meta": "ClientRef"},
        {"label": "OriginBank", "report": "OriginatingBank"},
        {"label": "RecipientBank", "report": "ReceivingBank"},
        {"label": "DealerType", "meta": "DealerType"},
        {"label": "BranchName", "report": "BranchName"},
        {"label": "BranchCode", "report": "BranchCode"},
        {"label": "HubName", "report": "HubName"},
        {"label": "HubCode", "report": "HubCode"}
      ],
      "criteria": [
        {"system": "State", "value": "Cancelled"},
        {"report": "TrnReference", "values": "${SEARCH:trnReference}"},
        {"report": "ValueDate", "values": "${SEARCH:valueDate}"},
        {"report": "Flow", "values": "${SEARCH:flow}"},
        {"report": "FlowCurrency", "values": "${SEARCH:currency}"},
        {"meta": "SourceSystem", "values": "${SEARCH:source}"},
        {"meta": "SourceRef", "values": "${SEARCH:sourceRef}"},
        {"meta": "ClientRef", "values": "${SEARCH:clientRef}"},
        {"report": "OriginatingBank", "values": "${SEARCH:originatingBank}"},
        {"report": "ReceivingBank", "values": "${SEARCH:receivingBank}"},
        {"report": "OriginatingCountry", "values": "${SEARCH:originatingCountry}"},
        {"report": "ReceivingCountry", "values": "${SEARCH:receivingCountry}"},
        {"report": "HubCode", "values": "${SEARCH:hubCode}"},
        {"report": "HubName", "values": "${SEARCH:hubName}"},
        {"report": "BranchCode", "values": "${SEARCH:branchCode}"},
        {"report": "BranchName", "values": "${SEARCH:branchName}"},
        {"meta": "DealerType", "values": "${SEARCH:dealerType}"},
        {"report": "TotalForeignValue", "values": "${SEARCH:amount}"},
        {"meta": "DrCr", "values": "${SEARCH:drCr}"}
      ]
    },
    {
      "name":"All",
      "fields": [
        {"label": "Reference", "report": "TrnReference"},
        {"label": "SourceSystem", "meta": "SourceSystem"},
        {"label": "Status", "system": "State"},
        {"label": "Value Date", "report": "ValueDate"},
        {"label": "Currency", "report": "FlowCurrency"},
        {"label": "Amount", "report": "TotalForeignValue"},
        {"label": "ZAR", "report": "ZAREquivalent"},
        {"label": "Flow", "report": "Flow"},
        {"label": "DrCr", "meta": "DrCr"},
        {"label": "SourceRef", "meta": "SourceRef"},
        {"label": "ClientRef", "meta": "ClientRef"},
        {"label": "OriginBank", "report": "OriginatingBank"},
        {"label": "RecipientBank", "report": "ReceivingBank"},
        {"label": "DealerType", "meta": "DealerType"},
        {"label": "BranchName", "report": "BranchName"},
        {"label": "BranchCode", "report": "BranchCode"},
        {"label": "HubName", "report": "HubName"},
        {"label": "HubCode", "report": "HubCode"}
      ],
      "criteria": [
        {"report": "TrnReference", "values": "${SEARCH:trnReference}"},
        {"report": "ValueDate", "values": "${SEARCH:valueDate}"},
        {"report": "Flow", "values": "${SEARCH:flow}"},
        {"report": "FlowCurrency", "values": "${SEARCH:currency}"},
        {"meta": "SourceSystem", "values": "${SEARCH:source}"},
        {"meta": "SourceRef", "values": "${SEARCH:sourceRef}"},
        {"meta": "ClientRef", "values": "${SEARCH:clientRef}"},
        {"report": "OriginatingBank", "values": "${SEARCH:originatingBank}"},
        {"report": "ReceivingBank", "values": "${SEARCH:receivingBank}"},
        {"report": "OriginatingCountry", "values": "${SEARCH:originatingCountry}"},
        {"report": "ReceivingCountry", "values": "${SEARCH:receivingCountry}"},
        {"report": "HubCode", "values": "${SEARCH:hubCode}"},
        {"report": "HubName", "values": "${SEARCH:hubName}"},
        {"report": "BranchCode", "values": "${SEARCH:branchCode}"},
        {"report": "BranchName", "values": "${SEARCH:branchName}"},
        {"meta": "DealerType", "values": "${SEARCH:dealerType}"},
        {"report": "TotalForeignValue", "values": "${SEARCH:amount}"},
        {"meta": "DrCr", "values": "${SEARCH:drCr}"}
      ]
    }
  ]
}