{
  "public_key_fetch": {
    "parameters": [
      { "name": "Id", "path": "id" }
    ],
    "rest": {
      "verb": "POST",
      "dev_url": "https://api.dev1.sasfin.tbcloud.io/andile/security/gettokenkey",
      "url": "https://api.tst.sasfin.tbcloud.io/andile/security/gettokenkey",
      "body": [
        ""
      ]
    },
    "compose": [
      "<#assign doc = util.xmlDeserialize(response) >",
      "[",
      "<#if doc.loadTokenPublicKeyResponse??>",
      "<#list doc.loadTokenPublicKeyResponse as data>",
      "  {Id: '${util.escapeJavaScript(data.id)}', PublicKey: '${util.escapeJavaScript(data.publicKey)}', Source: '', Algorithm: 'RSA', Expiry: ''}<#if data_has_next>,</#if>",
      "</#list>",
      "</#if>",
      "]"
    ]
  },
  "public_key_fetch_sasfin_tbcloud": {
    "parameters": [
      { "name": "id", "path": "id" }
    ],
    "rest": {
      "verb": "POST",
      "dev_url": "https://api.dev1.sasfin.tbcloud.io/andile/security/gettokenkey",
      "local_test_url": "http://localhost:8080/report-data-store/test/sasfin/publicKey?keyId=e1614b8d-cb54-48ba-9a45-edc0f04bf458",
      "url": "https://api.tst.sasfin.tbcloud.io/andile/security/gettokenkey",
      "body": [
        ""
      ]
    },
    "compose": [
      "<#assign doc = util.xmlDeserialize(response) >",
      "[",
      "<#if doc.loadTokenPublicKeyResponse??>",
      "<#list doc.loadTokenPublicKeyResponse as data>",
      "  {Id: '${util.escapeJavaScript(data.id)}', PublicKey: '${util.escapeJavaScript(data.publicKey)}', Source: 'sasfin_tbcloud', Algorithm: 'RSA', Expiry: ''}<#if data_has_next>,</#if>",
      "</#list>",
      "</#if>",
      "]"
    ]
  }
}
