{
  "whitelist": {
    "mimeTypeMechanism":"Any",
    "mimeTypes": [
      "text",
      "text/xml",
      "text/plain",
      "plain",
      "xml/html",
      "application/xml",
      "application/text",
      "application/txt",
      "application/doc",
      "application/docx",
      "application/word",
      "application/pdf",
      "application/xls",
      "application/xlsx",
      "application/odf",
      "image/bmp",
      "image/jpg",
      "image/jpeg",
      "image/png",
      "image/tif",
      "image/tiff",
      "image/gif"
    ],
    "extensions": [
      "txt",
      "text",
      "doc",
      "docx",
      "word",
      "odf",
      "pdf",
      "xls",
      "xlsx",
      "excel",
      "html",
      "xml",
      "jpg",
      "jpeg",
      "bmp",
      "png",
      "tif",
      "tiff",
      "gif"
    ]
  }
}